idFrom idTo symptFrom dayInfect pInfect symptTo lenExposed lenProdomal lenSymptomatic
1429 1427 A 261 0.00841674 S 1 1 8
1437 1428 A 284 0.00676484 A 2 1 7
-1 1429 ? 258 0 A 2 2 9
1429 1431 A 261 0.00841674 A 4 1 7
1443 1434 A 280 0.00115525 S 6 1 8
1427 1435 S 263 0.0168165 A 3 1 5
1431 1437 A 268 0.00129832 A 4 2 11
1465 1439 A 267 0.00226466 A 6 2 8
1489 1443 A 268 0.00173139 A 3 2 9
1427 1451 S 263 0.0168165 A 3 2 15
1458 1452 A 309 0.00207213 S 3 1 12
1495 1453 A 311 0.010168 A 1 1 7
1493 1458 S 296 0.00777555 A 5 1 11
1427 1465 S 263 0.0168165 A 3 1 5
1480 1475 A 271 0.00422447 S 2 1 9
1465 1480 A 267 0.00226466 A 2 2 11
1563 1482 A 273 0.00027338 A 3 2 7
1429 1489 A 261 0.00841674 A 2 1 9
1637 1493 A 290 0.00198941 S 3 2 6
1458 1495 A 305 0.000207288 A 3 1 8
1437 1501 A 284 0.00676484 A 3 1 10
1451 1520 A 268 0.00196651 S 2 1 18
1730 1549 A 273 0.000357595 S 4 1 5
1562 1552 A 389 0.00203747 S 3 2 6
1572 1558 S 368 0.00321699 S 2 2 10
1594 1560 A 352 0.00375341 A 4 2 5
1574 1562 S 383 0.00111772 A 4 1 10
1429 1563 A 261 0.00841674 A 5 1 6
1560 1572 A 363 0.00814359 S 4 1 6
1685 1574 A 376 0.00378967 S 5 2 12
1437 1578 A 284 0.00676484 S 1 2 4
1572 1580 S 368 0.00321699 S 3 1 6
1437 1585 A 273 0.00327286 A 3 2 6
1427 1592 S 263 0.0168165 S 2 1 9
1780 1594 S 345 0.000158771 A 4 2 9
1617 1603 A 320 0.00394623 A 3 2 9
1922 1604 S 336 0.00413854 S 4 1 7
1663 1606 S 289 0.00837489 A 4 2 7
1708 1613 S 336 0.00561423 S 3 2 5
1606 1616 A 302 0.00141609 S 5 1 8
1851 1617 S 311 0.00407861 A 3 2 7
1684 1625 A 294 0.000987829 S 2 1 12
1451 1637 A 272 0.00446999 A 6 2 11
1684 1641 A 299 0.000808768 S 3 2 6
1922 1643 S 336 0.00413854 S 2 1 12
1606 1649 A 302 0.00141609 S 3 2 9
1730 1653 A 281 0.00120651 S 2 1 5
1908 1656 S 301 0.00603571 S 2 1 9
1696 1661 A 303 0.00678043 S 8 1 13
1695 1663 A 284 0.00100718 S 4 2 4
1663 1665 S 289 0.00837489 S 3 1 6
1695 1666 A 284 0.00100718 S 4 1 3
1458 1668 A 309 0.00207213 A 2 2 15
1434 1675 S 287 0.00484385 S 6 2 5
1920 1680 A 298 0.00543599 A 4 1 11
1675 1681 S 294 0.00104089 S 5 2 6
1663 1682 S 289 0.00837489 A 3 2 5
1663 1684 S 289 0.00837489 A 2 2 9
1572 1685 S 368 0.00321699 A 2 2 8
1695 1687 A 284 0.00100718 S 4 1 4
1684 1688 A 297 0.00307377 S 2 1 7
1437 1695 A 273 0.00327286 A 3 2 12
1663 1696 S 289 0.00837489 A 8 2 4
1761 1697 A 308 0.00683806 S 2 1 9
1696 1698 A 303 0.00678043 A 4 2 5
1912 1704 S 358 0.000352114 S 4 1 8
1851 1706 S 311 0.00407861 A 3 2 19
1560 1707 A 363 0.00814359 S 3 2 12
1872 1708 A 331 0.00254824 S 4 2 9
1787 1711 A 354 0.00969784 A 3 1 7
1594 1723 A 352 0.00375341 S 3 1 6
1429 1730 A 268 0.00291062 A 3 2 8
1594 1731 A 352 0.00375341 S 1 1 6
1696 1745 A 303 0.00678043 S 4 1 11
1427 1750 S 263 0.0168165 S 4 2 6
1437 1751 A 273 0.00327286 A 4 1 7
1920 1752 A 298 0.00543599 S 3 2 8
1920 1757 A 298 0.00543599 A 4 2 9
1680 1759 A 303 0.000853129 A 4 1 9
1696 1761 A 302 0.000536646 A 3 1 8
1768 1764 S 359 0.00217012 A 3 2 7
1908 1765 S 301 0.00603571 S 4 2 5
1684 1766 A 294 0.000987829 S 3 2 12
1761 1767 A 308 0.00683806 S 1 2 9
1787 1768 A 354 0.00969784 S 3 1 15
1787 1772 A 354 0.00969784 S 3 1 7
1775 1774 A 352 0.010137 S 4 1 9
1708 1775 S 336 0.00561423 A 6 1 13
1663 1779 S 289 0.00837489 A 2 1 5
1822 1780 S 341 0.0054966 S 2 2 12
1761 1783 A 308 0.00683806 A 5 1 8
1775 1787 A 345 0.0030572 A 5 1 12
1757 1789 A 311 0.00134057 S 4 1 6
1775 1790 A 345 0.0030572 A 3 1 7
1675 1792 S 294 0.00104089 S 3 1 10
1768 1798 S 359 0.00217012 S 4 2 8
1764 1799 A 371 0.000691788 S 4 1 3
1708 1822 S 336 0.00561423 S 2 2 8
1435 1824 A 268 0.0034414 S 4 1 10
1761 1851 A 308 0.00683806 S 1 2 9
1851 1855 S 311 0.00407861 S 2 2 7
1562 1859 A 389 0.00203747 S 6 1 6
1855 1872 S 316 0.00109045 A 3 2 10
1434 1885 S 287 0.00484385 S 3 2 10
1675 1908 S 294 0.00104089 S 5 1 7
1787 1912 A 354 0.00969784 S 3 2 7
1708 1916 S 336 0.00561423 S 5 2 5
1695 1920 A 284 0.00100718 A 3 2 9
1603 1922 A 333 0.00105104 S 1 1 10
