idFrom idTo symptFrom dayInfect pInfect symptTo lenExposed lenProdomal lenSymptomatic
1434 1426 S 120 0.000456874 A 4 2 8
1480 1429 A 156 0.00913652 S 5 2 7
1426 1431 A 129 0.00212067 A 3 1 9
-1 1434 ? 112 0 S 5 2 8
1483 1437 S 165 0.00443807 A 2 2 6
1431 1439 A 136 0.000575158 S 4 2 10
1459 1452 A 142 0.0037407 A 3 2 10
1458 1453 S 155 0.00308983 S 5 2 7
1477 1457 S 163 0.00966293 A 4 2 8
1452 1458 A 148 0.000156969 S 4 2 10
1498 1459 A 134 0.000795072 A 5 1 8
1480 1465 A 151 0.000668363 S 2 1 7
1458 1477 S 155 0.00308983 S 5 2 5
1477 1479 S 163 0.00966293 A 2 1 12
1439 1480 S 141 0.000429604 A 6 1 8
1480 1482 A 156 0.00913652 A 4 2 11
1520 1483 A 161 0.00502746 S 3 1 8
1482 1486 A 171 0.0049466 A 3 1 8
1480 1489 A 153 0.000436366 S 3 1 7
1585 1498 A 130 0.000710604 A 1 1 8
1520 1502 A 161 0.00502746 A 1 1 8
1815 1503 S 176 0.000152527 S 2 1 7
1548 1504 S 169 0.00490961 S 3 2 6
1458 1516 S 155 0.00308983 A 2 2 5
1452 1520 A 151 0.00106299 A 7 1 6
1835 1521 A 189 0.00360978 S 2 1 8
1459 1522 A 142 0.0037407 A 6 1 10
1548 1525 S 169 0.00490961 A 2 2 8
1525 1528 A 175 0.00107064 A 3 2 11
1458 1533 S 155 0.00308983 S 3 2 7
1477 1548 S 163 0.00966293 S 3 2 8
1572 1551 S 164 0.00244493 S 3 2 10
1748 1552 A 176 0.00555112 S 2 2 6
1700 1555 S 175 0.0212421 A 3 2 6
1560 1558 S 170 0.00696887 S 5 2 6
1572 1560 S 164 0.00244493 S 5 2 5
1700 1562 S 175 0.0212421 A 4 1 8
1551 1564 S 169 0.0183595 S 4 2 10
1558 1567 S 178 0.0023762 A 5 2 7
1551 1570 S 169 0.0183595 A 4 2 12
1480 1572 A 156 0.00913652 S 7 2 8
1700 1574 S 175 0.0212421 S 4 2 9
1486 1578 A 183 0.000230836 S 7 1 10
1551 1579 S 169 0.0183595 S 8 2 9
1560 1580 S 172 0.00359058 S 3 1 7
1434 1585 S 120 0.000456874 A 5 2 12
1458 1592 S 155 0.00308983 S 7 1 6
1551 1594 S 169 0.0183595 A 8 1 9
1613 1606 S 179 0.00256056 S 4 1 7
1700 1613 S 175 0.0212421 S 3 2 6
1613 1616 S 179 0.00256056 S 3 1 7
1579 1625 S 179 0.00145107 A 2 2 5
1548 1666 S 169 0.00490961 S 5 2 8
1520 1673 A 161 0.00502746 S 2 1 12
1560 1685 S 170 0.00696887 S 1 2 3
1560 1700 S 170 0.00696887 S 4 2 8
1854 1702 S 180 0.00933869 S 1 2 6
1700 1707 S 175 0.0212421 A 3 2 11
1613 1708 S 179 0.00256056 S 4 2 5
1700 1712 S 175 0.0212421 S 1 1 6
1795 1714 S 177 0.0023773 S 4 1 6
1795 1719 S 177 0.0023773 S 6 1 3
1700 1720 S 175 0.0212421 A 6 1 9
1748 1722 A 177 0.0039913 S 5 2 7
1731 1727 A 184 8.21471e-05 A 3 2 7
1560 1731 S 172 0.00359058 A 2 2 8
1560 1735 S 170 0.00696887 A 5 1 7
1780 1737 A 179 0.00540021 S 4 1 8
1551 1738 S 169 0.0183595 S 2 2 14
1551 1748 S 169 0.0183595 A 4 2 7
1452 1751 A 147 0.000922137 S 3 1 11
1731 1757 A 178 0.000168818 S 6 1 4
1838 1763 A 192 0.00322272 S 4 2 10
1700 1764 S 175 0.0212421 S 4 1 7
1700 1778 S 175 0.0212421 S 1 2 7
1673 1779 S 165 4.51552e-05 S 2 2 5
1700 1780 S 175 0.0212421 A 3 1 7
1551 1782 S 169 0.0183595 S 2 1 7
1551 1795 S 169 0.0183595 S 6 1 5
1480 1797 A 156 0.00913652 S 5 2 6
1838 1800 A 198 0.00066108 A 3 2 5
1551 1801 S 169 0.0183595 S 4 1 12
1748 1809 A 176 0.00555112 A 5 1 5
1548 1815 S 169 0.00490961 S 5 1 11
1748 1822 A 177 0.0039913 S 5 1 7
1748 1833 A 176 0.00555112 A 3 1 7
1780 1835 A 179 0.00540021 A 5 1 5
1585 1837 A 132 0.00317801 S 3 1 14
1720 1838 A 186 0.000787694 A 5 2 11
1551 1851 S 169 0.0183595 S 4 1 5
1700 1854 S 175 0.0212421 S 3 1 11
1780 1887 A 179 0.00540021 S 2 2 6
1702 1889 S 182 0.00103486 A 4 2 7
1613 1907 S 179 0.00256056 A 3 1 5
1835 1910 A 189 0.00360978 S 4 1 7
1560 1912 S 170 0.00696887 S 3 2 10
1606 1916 S 185 0.00218602 S 4 1 7
