idFrom idTo symptFrom dayInfect pInfect symptTo lenExposed lenProdomal lenSymptomatic
1434 1427 A 235 0.000440195 S 5 2 9
-1 1434 ? 228 0 A 2 1 10
1480 1439 S 240 0.0031493 A 3 1 7
1501 1458 S 248 0.00208094 S 3 2 5
1480 1475 S 240 0.0031493 S 4 2 8
1502 1477 A 262 0.0018521 S 5 1 8
1439 1479 A 246 0.00117528 S 3 1 8
1434 1480 A 237 0.00212819 S 2 2 6
1502 1493 A 262 0.0018521 A 3 2 9
1885 1501 S 246 0.0107994 S 1 1 10
1637 1502 S 255 0.000369487 A 3 2 6
1885 1519 S 246 0.0107994 A 2 2 5
1434 1533 A 231 4.13763e-05 S 5 1 7
1885 1630 S 246 0.0107994 S 4 2 7
1501 1637 S 248 0.00208094 S 5 1 9
1857 1821 S 259 0.000138889 S 4 1 16
1427 1824 S 243 0.000898234 A 2 1 10
1885 1831 S 246 0.0107994 A 3 1 14
1831 1857 A 254 0.00100059 S 4 1 4
1434 1885 A 238 0.000447133 S 5 2 5
