idFrom idTo symptFrom dayInfect pInfect symptTo lenExposed lenProdomal lenSymptomatic
-1 1434 ? 237 0 S 3 1 8
1563 1437 S 254 0.00459811 S 5 1 8
1434 1443 S 242 0.00612753 A 3 1 7
1563 1457 S 254 0.00459811 S 3 2 11
1434 1475 S 242 0.00612753 S 5 1 9
1837 1482 A 255 0.00380277 S 6 1 11
1457 1483 S 259 0.0026035 A 5 1 10
1525 1503 S 256 0.00835909 S 4 2 11
1525 1504 S 256 0.00835909 A 2 1 10
1525 1516 S 256 0.00835909 A 4 1 6
1532 1519 S 252 0.0151477 A 2 1 14
1532 1525 S 252 0.0151477 S 1 2 9
1532 1528 S 252 0.0151477 S 3 1 13
1885 1532 S 246 0.00640293 S 5 2 5
1885 1533 S 247 0.00706667 S 5 1 6
1532 1538 S 252 0.0151477 A 5 1 9
1837 1539 A 252 0.000409115 A 4 1 6
1837 1545 A 255 0.00380277 S 4 2 4
1434 1546 S 242 0.00612753 A 1 1 11
1532 1548 S 252 0.0151477 A 5 2 6
1532 1549 S 252 0.0151477 S 2 1 8
1443 1563 A 249 0.000706696 S 2 2 7
1528 1585 S 256 0.00410339 S 5 1 14
1628 1613 S 256 0.001794 S 4 2 9
1525 1618 S 256 0.00835909 S 4 1 7
1675 1625 A 297 0.00327364 A 3 2 6
1532 1628 S 252 0.0151477 S 2 1 6
1697 1637 A 283 0.000200982 S 4 1 4
1757 1648 A 282 0.00113053 S 4 2 6
1902 1649 A 312 0.00228988 S 9 1 9
1887 1650 A 338 0.00857635 S 3 1 6
1674 1656 S 363 0.0155952 S 2 2 6
1697 1661 A 290 0.000970229 S 2 1 7
1837 1664 A 249 0.00361238 A 2 2 7
1666 1665 A 268 0.000648534 A 3 1 4
1664 1666 A 255 0.000376532 A 4 1 8
1457 1668 S 259 0.0026035 A 3 2 5
1684 1670 A 268 0.00592609 S 2 2 8
1745 1673 S 274 0.00436159 S 4 1 8
1792 1674 A 360 0.00861331 S 2 2 7
1696 1675 S 283 0.000521395 A 5 2 8
1675 1682 A 297 0.00327364 S 6 1 14
1847 1684 A 259 0.000426335 A 5 1 8
1661 1687 S 294 0.000677553 S 6 2 7
1684 1688 A 268 0.00592609 S 3 2 9
1666 1695 A 264 0.000626783 S 6 1 9
1745 1696 S 275 0.00403792 S 5 2 5
1745 1697 S 274 0.00436159 A 5 2 13
1745 1698 S 274 0.00436159 S 4 1 8
1650 1702 S 342 0.0100337 A 3 1 8
1743 1704 A 350 0.0134556 S 3 2 6
1528 1705 S 256 0.00410339 S 2 2 8
1861 1706 A 325 0.000642488 S 4 2 7
1851 1708 A 317 0.000295808 A 5 1 4
1792 1710 A 360 0.00861331 A 2 1 12
1704 1713 S 354 0.00505505 A 5 2 8
1861 1718 A 331 0.00181875 S 2 1 4
1783 1719 A 295 0.00401062 A 3 1 9
1628 1722 S 256 0.001794 A 7 2 8
1885 1727 S 246 0.00640293 S 5 1 7
1847 1730 A 254 0.00137484 S 3 2 11
1684 1732 A 268 0.00592609 A 4 1 8
1887 1743 A 338 0.00857635 A 6 2 11
1666 1745 A 267 0.000797966 S 5 2 11
1761 1749 A 287 0.00857208 S 4 2 8
1668 1751 A 265 0.000767423 S 5 1 7
1666 1757 A 268 0.000648534 A 8 2 9
1697 1761 A 280 0.00187687 A 4 2 9
1792 1764 A 360 0.00861331 S 2 2 9
1503 1765 S 261 0.00773935 S 1 1 5
1775 1774 S 366 0.000200627 S 4 1 9
1792 1775 A 360 0.00861331 S 5 2 5
1684 1779 A 268 0.00592609 S 8 1 10
1761 1783 A 287 0.00857208 A 4 2 7
1792 1787 A 360 0.00861331 S 1 1 7
1743 1792 A 354 0.000101719 A 5 1 5
1783 1796 A 295 0.00401062 S 4 1 7
1684 1797 A 268 0.00592609 S 5 1 5
1821 1802 A 249 0.00366569 A 2 1 6
1802 1803 A 253 0.00525814 A 4 2 6
1528 1815 S 256 0.00410339 S 4 1 5
1434 1821 S 242 0.00612753 A 4 1 11
1434 1837 S 242 0.00612753 A 6 2 6
1821 1847 A 248 0.00182877 A 4 2 6
1625 1851 A 307 0.00980208 A 6 1 7
1625 1852 A 307 0.00980208 A 4 2 11
1861 1854 A 331 0.00181875 S 3 2 8
1821 1857 A 249 0.00366569 S 4 2 4
1851 1858 A 319 0.000877978 S 7 2 9
1887 1859 A 338 0.00857635 S 3 2 8
1851 1861 A 314 0.000576796 A 6 1 10
1743 1863 A 350 0.0134556 S 3 2 11
1857 1866 S 254 0.000607901 S 3 2 5
1877 1872 S 309 0.000381991 S 3 1 5
1687 1877 S 302 0.0139687 S 6 1 7
1802 1880 A 253 0.00525814 S 3 2 14
1743 1883 A 350 0.0134556 A 4 1 10
1434 1885 S 242 0.00612753 S 3 1 10
1861 1887 A 331 0.00181875 A 3 2 7
1861 1889 A 324 0.00400028 S 8 1 10
1897 1890 A 374 0.000446175 A 3 2 11
1434 1895 S 242 0.00612753 A 2 1 11
1883 1897 A 364 0.00429598 A 4 2 5
1912 1898 S 284 0.00587854 S 2 2 5
1625 1902 A 301 0.000252181 A 3 2 7
1761 1907 A 287 0.00857208 S 4 1 8
1912 1908 S 284 0.00587854 S 2 1 9
1628 1909 S 256 0.001794 S 3 2 6
1837 1911 A 255 0.00380277 A 6 1 7
1745 1912 S 275 0.00403792 S 7 2 7
1684 1920 A 268 0.00592609 A 7 1 8
