idFrom idTo symptFrom dayInfect pInfect symptTo lenExposed lenProdomal lenSymptomatic
1843 1594 S 289 0.00132898 S 2 1 4
1843 1648 S 289 0.00132898 A 4 1 12
1748 1719 S 284 0.00155939 S 3 1 17
-1 1748 ? 278 0 S 5 2 7
1859 1782 S 306 0.00203109 A 3 2 6
1843 1801 S 289 0.00132898 A 3 2 7
1843 1822 S 289 0.00132898 S 2 2 7
1748 1843 S 284 0.00155939 S 4 1 6
1801 1859 A 299 0.00596421 S 5 1 7
