idFrom idTo symptFrom dayInfect pInfect symptTo lenExposed lenProdomal lenSymptomatic
1475 1434 S 56 0.0246025 A 1 1 7
1465 1439 A 79 3.32383e-05 A 1 2 10
1475 1443 S 56 0.0246025 A 4 2 11
1592 1451 A 51 0.00182876 A 5 2 13
1468 1453 S 43 0.00300871 A 5 1 8
1443 1465 A 73 6.62052e-05 A 5 1 5
-1 1468 ? 36 0 S 5 2 9
1592 1475 A 51 0.00182876 S 3 2 8
1592 1482 A 51 0.00182876 S 3 2 10
1520 1502 S 71 0.00130083 S 4 1 6
1451 1520 A 66 0.00134919 S 4 2 9
1666 1546 S 85 0.00342937 S 5 1 10
1468 1592 S 43 0.00300871 A 3 2 9
1684 1616 A 99 0.00452865 S 2 1 7
1666 1661 S 85 0.00342937 S 3 2 9
1665 1663 A 96 0.00660295 A 2 1 6
1684 1664 A 99 0.00452865 S 4 1 8
1666 1665 S 85 0.00342937 A 3 1 9
1673 1666 A 78 4.3846e-05 S 4 2 11
1453 1668 A 49 0.00218611 A 2 2 8
1663 1670 A 99 0.000935759 S 5 2 5
1520 1673 S 71 0.00130083 A 4 2 10
1673 1675 A 79 0.000272599 A 5 1 6
1912 1684 S 91 0.00170188 A 5 1 7
1684 1687 A 101 0.00521743 A 2 1 5
1666 1688 S 85 0.00342937 A 3 1 8
1666 1695 S 85 0.00342937 S 2 2 13
1684 1696 A 101 0.00521743 A 4 2 8
1675 1697 A 88 0.00234232 S 3 1 7
1912 1698 S 91 0.00170188 S 3 2 10
1684 1730 A 104 0.00287931 S 3 1 10
1684 1752 A 102 8.07449e-06 A 8 2 9
1666 1765 S 85 0.00342937 A 5 1 5
1752 1766 A 114 0.00105928 A 2 2 5
1684 1779 A 99 0.00452865 S 4 1 8
1819 1805 A 64 0.00349496 A 3 2 8
1475 1819 S 56 0.0246025 A 5 2 8
1666 1912 S 85 0.00342937 S 4 2 3
