idFrom idTo symptFrom dayInfect pInfect symptTo lenExposed lenProdomal lenSymptomatic
-1 1428 ? 138 0 S 3 1 6
1495 1451 S 156 0.00646284 S 7 2 10
1428 1457 S 143 0.0137455 S 6 1 12
1498 1458 S 148 0.00203387 S 6 2 7
1428 1471 S 143 0.0137455 A 1 1 9
1428 1483 S 143 0.0137455 A 5 1 8
1428 1486 S 143 0.0137455 S 2 2 9
1520 1495 S 149 0.00163706 S 5 2 7
1428 1498 S 143 0.0137455 S 4 2 8
1428 1520 S 143 0.0137455 S 3 2 15
1851 1532 A 154 0.00191043 A 3 2 5
1428 1585 S 143 0.0137455 S 3 1 6
1498 1601 S 148 0.00203387 A 5 2 10
1851 1650 A 155 0.00412405 S 4 1 13
1851 1704 A 155 0.00412405 A 3 2 8
1851 1706 A 155 0.00412405 S 4 2 11
1801 1748 A 169 0.00363051 S 1 2 5
1851 1801 A 155 0.00412405 A 6 1 15
1855 1838 A 170 0.00248539 S 2 2 9
1428 1851 S 143 0.0137455 A 6 1 9
1851 1855 A 155 0.00412405 A 4 1 10
1855 1890 A 164 0.000790501 A 7 1 8
