idFrom idTo symptFrom dayInfect pInfect symptTo lenExposed lenProdomal lenSymptomatic
1578 1426 S 66 0.00012119 S 2 2 8
1498 1428 A 92 0.0426189 S 1 1 7
1489 1431 A 45 0.00142731 S 4 1 6
1578 1435 S 67 0.00404794 S 5 1 8
1439 1437 S 65 0.0017006 S 5 1 4
1480 1439 A 60 0.00289426 S 3 1 6
1475 1443 A 51 0.00752572 S 2 1 5
1495 1451 A 97 0.000769276 S 3 2 6
1457 1452 S 78 0.00928596 A 5 1 8
1457 1453 S 78 0.00928596 S 3 1 6
1437 1457 S 71 7.99988e-05 S 5 1 7
1498 1458 A 92 0.0426189 S 2 2 6
1498 1459 A 90 0.00244349 A 8 1 10
1480 1461 A 60 0.00289426 S 3 1 4
1457 1468 S 78 0.00928596 S 3 1 4
1489 1475 A 47 0.00759783 A 3 2 7
1498 1477 A 92 0.0426189 A 2 2 8
1475 1480 A 51 0.00752572 A 8 1 12
1498 1482 A 92 0.0426189 S 4 1 9
1498 1483 A 92 0.0426189 S 6 1 6
1498 1486 A 92 0.0426189 S 2 2 7
-1 1489 ? 38 0 A 6 2 7
1457 1493 S 78 0.00928596 S 3 1 9
1498 1495 A 90 0.00244349 A 3 2 9
1457 1498 S 78 0.00928596 A 5 2 8
1498 1516 A 92 0.0426189 S 1 1 8
1498 1520 A 92 0.0426189 S 1 2 6
1457 1522 S 78 0.00928596 S 3 1 6
1480 1532 A 60 0.00289426 S 5 1 7
1498 1533 A 92 0.0426189 S 5 1 8
1579 1558 S 96 0.0048576 S 3 1 12
1457 1563 S 78 0.00928596 S 4 2 10
1480 1578 A 60 0.00289426 S 5 1 7
1498 1579 A 92 0.0426189 S 3 1 8
1498 1585 A 92 0.0426189 A 5 2 5
1520 1613 S 95 0.00050573 S 6 1 6
1578 1750 S 67 0.00404794 A 4 1 11
1439 1797 S 65 0.0017006 S 2 2 14
