idFrom idTo symptFrom dayInfect pInfect symptTo lenExposed lenProdomal lenSymptomatic
1563 1427 S 148 0.00810544 S 3 1 6
1563 1428 S 148 0.00810544 A 1 1 10
1489 1429 S 143 0.00932833 A 4 1 11
1563 1431 S 148 0.00810544 A 4 2 11
1563 1437 S 148 0.00810544 S 5 2 7
1431 1439 A 156 0.00234794 S 4 1 7
1489 1451 S 143 0.00932833 A 5 1 7
1751 1453 S 171 0.00379742 S 2 2 7
1563 1457 S 148 0.00810544 S 4 1 8
1498 1458 A 165 0.00882443 S 1 2 5
1477 1459 A 164 0.00142725 S 3 1 5
1751 1461 S 171 0.00379742 A 5 1 6
1751 1465 S 171 0.00379742 S 2 1 8
1428 1477 A 158 0.00456193 A 4 1 7
1431 1480 A 164 0.000280922 A 3 1 4
1489 1482 S 143 0.00932833 S 3 2 3
1498 1483 A 165 0.00882443 A 4 2 5
1585 1486 A 170 0.0077012 A 3 2 7
-1 1489 ? 141 0 S 1 2 7
1498 1493 A 165 0.00882443 S 2 1 6
1563 1495 S 148 0.00810544 S 5 1 8
1428 1498 A 158 0.00456193 A 2 2 7
1837 1500 S 177 0.00312876 S 4 1 13
1493 1501 S 169 0.00149972 A 7 1 7
1520 1502 A 171 0.00186401 S 3 1 6
1563 1503 S 148 0.00810544 A 4 1 5
1498 1516 A 165 0.00882443 S 2 1 7
1498 1520 A 162 0.00112474 A 4 2 11
1498 1522 A 168 0.00904101 S 5 1 6
1653 1533 S 167 0.00720309 S 6 1 11
1489 1563 S 143 0.00932833 S 3 1 11
1498 1585 A 165 0.00882443 A 3 1 8
1503 1653 A 158 0.000558469 S 6 2 6
1751 1668 S 171 0.00379742 A 2 1 11
1498 1751 A 165 0.00882443 S 4 2 10
1653 1797 S 167 0.00720309 S 6 2 6
1429 1824 A 154 0.00663203 A 2 1 8
1585 1837 A 170 0.0077012 S 5 1 6
