idFrom idTo symptFrom dayInfect pInfect symptTo lenExposed lenProdomal lenSymptomatic
1429 1426 A 112 0.00321026 A 3 1 7
1429 1427 A 119 0.00115257 A 7 1 11
1457 1428 S 85 0.00119252 S 5 1 10
1489 1429 S 107 0.000859464 A 4 2 11
1429 1431 A 112 0.00321026 A 3 1 10
1489 1434 S 108 0.00569752 A 2 1 7
1489 1437 S 108 0.00569752 S 1 1 8
1502 1443 A 74 0.00172714 S 5 2 9
1501 1451 S 76 0.000856836 S 6 2 9
1502 1452 A 72 0.00233297 A 4 1 7
1452 1457 A 81 0.00085752 S 3 1 11
1452 1458 A 77 0.000479842 A 4 2 8
1452 1459 A 77 0.000479842 A 2 2 7
1458 1461 A 82 0.00607208 S 3 1 7
1431 1465 A 122 0.0011973 S 8 1 5
1429 1471 A 112 0.00321026 A 4 2 7
1824 1475 S 99 0.00742819 S 5 2 8
1452 1477 A 77 0.000479842 A 4 1 5
1461 1479 S 86 0.000260696 A 3 1 7
1563 1480 S 116 0.0131311 A 2 2 10
1458 1482 A 82 0.00607208 S 4 2 6
1824 1489 S 99 0.00742819 S 6 2 8
1502 1493 A 72 0.00233297 S 3 1 8
1520 1495 S 77 0.00144799 S 2 2 5
1502 1501 A 72 0.00233297 S 3 1 6
-1 1502 ? 63 0 A 3 2 7
1482 1511 S 88 0.00151336 S 3 1 9
1502 1520 A 72 0.00233297 S 3 2 8
1452 1522 A 81 0.00085752 A 3 2 12
1437 1563 S 111 0.00152026 S 4 2 6
1434 1585 A 114 0.00290289 S 6 1 11
1458 1665 A 91 0.0109053 S 3 2 9
1787 1684 S 106 0.00262458 S 3 1 8
1458 1695 A 91 0.0109053 S 2 2 8
1752 1697 A 88 0.00748737 A 5 1 5
1458 1751 A 91 0.0109053 A 2 2 7
1458 1752 A 82 0.00607208 A 3 2 13
1426 1765 A 119 0.00222104 S 3 1 9
1752 1787 A 100 0.0004146 S 5 2 6
1752 1789 A 88 0.00748737 S 1 1 7
1789 1792 S 91 0.00437043 S 6 2 10
1789 1796 S 91 0.00437043 S 8 2 7
1752 1799 A 88 0.00748737 S 4 1 11
1428 1824 S 91 0.00449212 S 7 2 13
1563 1857 S 116 0.0131311 S 5 2 8
1431 1885 A 116 0.000211423 S 5 2 10
