idFrom idTo symptFrom dayInfect pInfect symptTo lenExposed lenProdomal lenSymptomatic
162 3 S 255 0.111453 A 4 1 10
158 54 A 240 0.0687102 A 4 2 5
158 74 A 240 0.0687102 A 4 2 11
159 77 S 252 0.0355436 S 7 2 8
3 122 A 268 0.0464212 S 11 2 8
-1 158 ? 232 0 A 6 2 9
74 159 A 247 0.0130292 S 2 2 5
159 162 S 252 0.0355436 S 2 1 8
74 333 A 247 0.0130292 S 5 1 9
162 372 S 255 0.111453 S 6 2 4
159 428 S 252 0.0355436 S 5 1 3
162 491 S 255 0.111453 S 3 2 10
158 959 A 240 0.0687102 A 2 1 10
