idFrom idTo symptFrom dayInfect pInfect symptTo lenExposed lenProdomal lenSymptomatic
691 47 A 73 0.00928946 S 5 2 7
267 119 A 67 0.0372957 A 2 2 9
510 172 S 46 0.046448 A 2 1 10
428 181 A 79 0.00164833 A 3 1 9
510 184 S 46 0.046448 A 6 2 12
267 198 A 67 0.0372957 A 3 1 6
-1 200 ? 25 0 S 2 1 7
172 210 A 57 0.13281 S 1 1 13
510 248 S 46 0.046448 A 2 1 6
743 267 A 59 0.00716748 A 2 1 12
119 270 A 72 0.00156842 S 3 2 10
634 322 A 39 0.0691208 S 5 1 11
267 366 A 71 0.0108535 S 1 2 5
200 401 S 28 0.155919 S 3 2 8
634 424 A 39 0.0691208 S 3 2 7
691 428 A 69 0.0303593 A 3 1 8
267 445 A 71 0.0108535 A 3 2 5
200 477 S 28 0.155919 S 2 1 5
510 486 S 46 0.046448 A 4 1 7
200 502 S 28 0.155919 S 3 2 9
510 504 S 46 0.046448 S 4 2 13
634 510 A 39 0.0691208 S 4 2 10
424 513 S 45 0.0197106 A 3 2 8
691 520 A 72 0.0386956 S 3 1 6
248 527 A 54 0.0571919 S 2 1 6
200 577 S 28 0.155919 A 5 1 9
200 634 S 28 0.155919 A 2 1 9
510 638 S 45 0.0115369 A 1 1 4
200 653 S 28 0.155919 S 1 1 6
634 674 A 39 0.0691208 S 3 1 11
267 691 A 64 0.00285756 A 3 1 9
267 706 A 71 0.0108535 S 3 2 11
510 743 S 46 0.046448 A 5 2 10
267 836 A 71 0.0108535 S 3 2 9
634 867 A 39 0.0691208 A 1 1 9
200 874 S 28 0.155919 S 1 1 3
200 1090 S 28 0.155919 A 6 2 5
510 1485 S 45 0.0115369 S 2 2 12
