idFrom idTo symptFrom dayInfect pInfect symptTo lenExposed lenProdomal lenSymptomatic
-1 20 ? 257 0 A 3 1 8
346 27 S 298 0.0184285 A 5 1 8
250 34 S 270 0.0327607 S 6 1 4
366 47 A 295 0.00162316 S 6 1 5
401 55 A 309 0.0505841 S 4 1 9
198 59 A 298 0.109261 S 7 1 10
1245 71 A 302 0.0839474 A 2 1 11
1323 72 S 270 0.038181 S 3 1 9
20 74 A 266 0.0706696 S 2 2 5
20 77 A 266 0.0706696 S 6 1 8
20 97 A 266 0.0706696 S 4 1 7
366 119 A 290 0.021226 A 2 1 6
20 122 A 266 0.0706696 A 5 2 13
122 141 A 277 0.0133211 A 3 2 8
426 147 A 277 0.00556386 S 5 1 5
909 156 S 301 0.0377266 S 4 2 6
27 160 A 308 0.00913426 S 4 1 5
985 164 A 271 0.0197868 S 3 2 9
1260 181 A 291 0.00103789 A 2 2 10
882 184 A 291 0.0346647 S 5 2 5
156 193 S 308 0.00304576 S 5 1 5
366 198 A 289 0.00332699 A 4 1 7
20 215 A 266 0.0706696 A 2 2 10
882 222 A 291 0.0346647 A 4 2 10
401 236 A 309 0.0505841 A 2 2 8
440 245 A 277 0.0135272 A 4 2 7
477 246 A 302 0.0279769 A 6 2 7
20 250 A 267 0.158665 S 2 2 9
882 252 A 284 0.0230525 S 6 2 7
198 253 A 298 0.109261 A 3 2 4
366 267 A 290 0.021226 S 1 1 6
882 275 A 291 0.0346647 A 3 1 7
250 295 S 270 0.0327607 S 5 1 4
1362 346 S 294 0.101521 S 2 2 9
882 366 A 284 0.0230525 A 4 1 7
859 372 A 319 0.0713969 A 1 1 7
20 378 A 266 0.0706696 A 4 2 7
426 387 A 277 0.00556386 S 2 2 10
1245 401 A 302 0.0839474 A 3 2 10
20 426 A 267 0.158665 A 8 2 6
478 428 A 297 0.0467014 S 3 2 8
426 429 A 280 0.0441651 S 5 2 7
440 435 A 275 0.0876994 S 3 2 7
20 440 A 266 0.0706696 A 4 1 7
198 445 A 298 0.109261 S 3 1 8
1362 461 S 294 0.101521 S 2 2 8
882 465 A 292 0.000472495 S 4 1 9
1362 477 S 294 0.101521 A 2 2 7
119 478 A 293 0.0172452 A 2 2 15
426 487 A 280 0.0441651 S 8 1 9
882 488 A 284 0.0230525 S 3 2 7
20 504 A 267 0.158665 S 3 2 9
184 510 S 297 0.105059 A 3 2 9
649 525 S 285 0.0137386 A 4 2 11
20 527 A 267 0.158665 S 3 1 7
184 577 S 297 0.105059 A 6 1 11
426 603 A 280 0.0441651 S 3 1 5
882 634 A 284 0.0230525 S 2 1 7
751 642 S 316 0.00536074 A 4 1 13
426 649 A 280 0.0441651 S 2 2 6
20 653 A 267 0.158665 S 4 1 8
20 656 A 266 0.0706696 A 6 2 8
366 660 A 289 0.00332699 A 4 1 10
909 694 S 301 0.0377266 A 2 1 7
779 725 A 329 0.0779374 S 3 2 7
156 751 S 308 0.00304576 S 7 2 10
236 763 A 317 0.0235336 S 4 2 8
1392 779 A 316 0.0165759 A 3 2 11
478 836 A 297 0.0467014 S 5 1 8
694 859 A 311 0.00481564 A 5 1 7
985 866 A 270 0.00530608 S 4 1 8
477 867 A 302 0.0279769 S 2 1 4
882 874 A 291 0.0346647 S 4 2 13
426 882 A 280 0.0441651 A 3 2 12
20 886 A 267 0.158665 A 4 2 9
184 893 S 297 0.105059 S 6 1 8
426 894 A 280 0.0441651 S 5 2 8
477 908 A 302 0.0279769 S 3 1 4
245 909 A 290 0.0518532 S 8 2 8
882 921 A 284 0.0230525 S 5 2 11
20 985 A 266 0.0706696 A 3 1 10
20 1209 A 266 0.0706696 S 6 1 10
1362 1245 S 294 0.101521 A 4 2 6
122 1260 A 280 0.0332795 A 5 2 5
20 1323 A 266 0.0706696 S 3 2 9
156 1342 S 306 0.0804125 S 3 2 9
141 1362 A 289 0.00635236 S 4 1 8
1245 1392 A 302 0.0839474 A 3 1 11
882 1485 A 284 0.0230525 S 1 2 11
122 1492 A 280 0.0332795 A 5 1 5
