idFrom idTo symptFrom dayInfect pInfect symptTo lenExposed lenProdomal lenSymptomatic
656 3 S 134 0.0823662 S 5 2 6
178 15 A 113 0.0452448 S 5 2 12
1209 20 S 139 0.303252 S 4 2 8
-1 27 ? 89 0 A 2 2 6
27 34 A 98 0.00904584 S 2 2 8
366 47 A 155 8.59737e-06 A 4 2 13
236 54 S 143 0.0642829 A 2 2 10
889 59 A 140 0.0678266 S 2 1 10
387 71 S 102 0.0175982 A 2 1 10
15 74 S 121 0.205965 S 2 2 6
603 77 A 127 0.00450998 S 2 2 11
889 80 A 140 0.0678266 S 2 2 7
378 89 S 135 0.030235 S 5 2 5
89 97 S 141 0.0774398 S 8 1 11
160 99 S 126 0.038942 S 1 2 5
779 110 S 121 0.203423 S 4 1 6
525 119 A 148 0.0734967 S 3 2 14
99 120 S 129 0.0294942 A 4 2 10
1392 147 S 108 0.0591435 S 5 1 4
642 160 A 117 0.0122961 S 6 2 8
160 165 S 126 0.038942 S 5 2 11
259 178 A 105 0.0121829 A 7 2 6
99 183 S 129 0.0294942 A 3 2 4
525 198 A 148 0.0734967 S 3 1 10
54 205 A 153 0.0192242 A 9 2 6
889 211 A 135 0.0288632 A 8 2 9
120 236 A 140 0.0252631 S 2 2 9
80 246 S 144 0.11024 S 4 1 9
15 250 S 121 0.205965 S 5 2 13
603 253 A 121 0.022344 A 5 2 8
27 259 A 98 0.00904584 A 2 1 9
120 261 A 140 0.0252631 S 7 2 8
889 267 A 140 0.0678266 A 3 2 7
343 270 A 155 0.128323 S 5 2 11
343 275 A 155 0.128323 S 6 1 8
27 295 A 98 0.00904584 S 10 2 6
1485 322 A 156 6.87508e-07 S 2 2 5
120 333 A 134 0.0126837 A 7 2 6
525 343 A 148 0.0734967 A 3 1 8
401 346 S 114 0.025019 S 5 2 5
525 366 A 148 0.0734967 A 6 1 10
642 372 A 121 0.0225771 S 1 1 5
1492 378 A 130 0.00914033 S 3 1 3
27 387 A 97 0.0465944 S 4 1 10
1392 401 S 108 0.0591435 S 3 2 10
939 407 S 169 0.00992647 S 2 2 6
366 420 A 156 0.0617725 S 1 1 8
498 425 S 126 0.00891359 S 5 1 8
77 426 S 130 0.0751612 A 2 1 7
343 428 A 155 0.128323 A 1 2 7
89 432 S 141 0.0774398 A 3 1 10
366 445 A 158 0.0281485 A 1 2 10
959 468 S 131 0.0370106 A 2 2 4
246 477 S 150 0.0200386 A 4 2 4
366 478 A 158 0.0281485 A 6 2 11
343 486 A 155 0.128323 S 5 2 8
15 491 S 119 0.0757376 S 4 2 5
15 498 S 120 0.0411943 S 4 2 4
486 510 S 162 0.0878718 S 3 1 11
889 525 A 140 0.0678266 A 3 2 7
211 527 A 148 0.0576134 A 5 1 7
939 533 S 169 0.00992647 S 4 1 8
387 580 S 102 0.0175982 S 3 1 9
99 582 S 129 0.0294942 A 4 2 8
401 603 S 114 0.025019 A 3 2 15
178 642 A 113 0.0452448 A 3 1 7
525 649 A 148 0.0734967 S 3 1 9
432 653 A 147 0.0244148 S 4 1 13
1492 656 A 130 0.00914033 S 3 2 7
525 660 A 151 0.00178773 A 5 2 8
603 691 A 129 0.0304454 S 3 1 11
603 694 A 131 0.00278718 S 6 2 8
1209 720 S 139 0.303252 S 4 2 7
378 741 S 135 0.030235 S 2 1 7
259 751 A 106 0.00977865 S 3 1 8
1209 778 S 139 0.303252 A 2 2 9
401 779 S 114 0.025019 S 5 1 7
343 793 A 155 0.128323 S 1 2 6
478 836 A 166 0.00626306 S 3 1 7
160 884 S 124 0.0199786 S 2 1 9
1209 886 S 139 0.303252 S 1 2 4
77 889 S 130 0.0751612 A 4 1 8
80 894 S 145 0.104858 S 5 2 9
261 923 S 148 0.0377149 S 2 2 10
486 939 S 163 0.0478682 S 5 1 13
779 954 S 121 0.203423 S 5 2 11
160 959 S 124 0.0199786 S 6 2 11
432 977 A 147 0.0244148 A 4 2 5
99 1067 S 129 0.0294942 S 3 2 7
99 1164 S 129 0.0294942 S 6 1 6
656 1209 S 134 0.0823662 S 4 2 5
432 1245 A 152 0.0867968 A 4 2 6
160 1342 S 126 0.038942 S 7 2 6
387 1392 S 102 0.0175982 S 4 2 13
246 1485 S 150 0.0200386 A 3 1 7
74 1492 S 125 0.0404411 A 2 1 5
