idFrom idTo symptFrom dayInfect pInfect symptTo lenExposed lenProdomal lenSymptomatic
407 39 S 121 0.0843706 S 5 2 9
-1 47 ? 95 0 S 2 1 4
1245 55 S 136 0.00987696 S 2 1 6
122 63 S 131 0.0403274 A 4 1 9
706 72 A 112 0.00543459 A 4 2 6
525 80 S 109 0.0104758 S 4 1 9
706 117 A 115 0.0154249 S 5 2 7
366 119 S 102 0.0314168 S 2 2 10
1260 122 A 126 0.0122753 S 4 2 7
407 141 S 121 0.0843706 A 3 1 8
366 198 S 102 0.0314168 S 2 1 8
706 210 A 114 0.0213514 S 4 2 6
270 253 A 108 0.011735 S 3 1 12
366 267 S 102 0.0314168 S 3 2 8
366 270 S 102 0.0314168 A 2 1 8
527 275 A 146 0.0815844 A 5 2 8
141 295 A 132 0.00725259 S 2 1 12
47 366 S 99 0.00408554 S 2 2 6
1362 387 A 137 0.0286364 S 3 2 8
706 407 A 114 0.0213514 S 5 2 5
55 447 S 139 0.00661169 A 4 1 6
366 468 S 102 0.0314168 S 7 1 10
366 478 S 102 0.0314168 S 2 1 9
894 488 S 124 0.0998293 S 6 2 5
577 504 A 123 0.0353118 A 5 2 10
270 520 A 108 0.011735 S 3 2 10
366 525 S 102 0.0314168 S 6 2 7
504 527 A 137 0.00468929 A 4 2 7
525 577 S 109 0.0104758 A 3 1 10
706 603 A 114 0.0213514 S 4 1 7
527 674 A 146 0.0815844 S 4 1 5
210 691 S 120 0.0286686 A 4 1 8
366 706 S 102 0.0314168 A 5 2 6
894 753 S 124 0.0998293 S 3 1 12
210 859 S 120 0.0286686 S 3 2 12
527 866 A 146 0.0815844 A 7 2 4
39 871 S 127 0.000299203 A 6 1 5
407 894 S 121 0.0843706 S 2 1 7
706 923 A 112 0.00543459 S 3 2 12
407 939 S 121 0.0843706 S 1 1 6
122 1245 S 131 0.0403274 S 3 1 5
407 1260 S 121 0.0843706 A 4 1 6
407 1362 S 121 0.0843706 A 5 1 11
577 1485 A 123 0.0353118 A 4 1 4
