idFrom idTo symptFrom dayInfect pInfect symptTo lenExposed lenProdomal lenSymptomatic
513 172 A 41 0.0352815 S 3 2 10
638 210 S 66 0.173123 A 3 1 10
743 248 A 49 0.0110423 S 4 2 10
322 275 S 51 0.0219053 S 3 1 7
743 322 A 49 0.0110423 S 1 2 8
322 465 S 51 0.0219053 S 5 2 14
638 477 S 66 0.173123 S 3 1 7
743 504 A 52 0.0317043 A 2 1 4
-1 513 ? 37 0 A 1 2 4
638 527 S 66 0.173123 A 2 1 6
210 603 A 74 0.0176223 S 1 1 5
527 634 A 74 0.0150255 A 5 1 5
1485 638 S 61 0.0203246 S 3 1 6
513 743 A 44 0.0289761 A 4 2 9
513 867 A 44 0.0289761 S 1 2 9
248 1485 S 56 0.0656696 S 4 1 6
