idFrom idTo symptFrom dayInfect pInfect symptTo lenExposed lenProdomal lenSymptomatic
-1 14 ? 220 0 A 5 1 14
14 18 A 233 0.0221462 S 3 2 13
14 544 A 233 0.0221462 S 5 2 8
14 998 A 233 0.0221462 S 2 2 8
