idFrom idTo symptFrom dayInfect pInfect symptTo lenExposed lenProdomal lenSymptomatic
1501 1451 S 249 0.0249487 S 5 1 6
1501 1453 S 249 0.0249487 S 4 1 9
1501 1461 S 249 0.0249487 A 3 1 9
1501 1477 S 249 0.0249487 S 5 2 7
1461 1480 A 261 0.0109729 S 5 1 7
1501 1493 S 249 0.0249487 A 6 1 6
1501 1495 S 249 0.0249487 S 1 2 5
1502 1501 A 243 0.00560098 S 4 2 12
-1 1502 ? 236 0 A 4 1 7
1502 1520 A 243 0.00560098 S 5 1 6
1501 1578 S 249 0.0249487 A 2 1 10
1461 1751 A 261 0.0109729 A 5 2 8
