idFrom idTo symptFrom dayInfect pInfect symptTo lenExposed lenProdomal lenSymptomatic
-1 1429 ? 248 0 S 5 1 8
1429 1453 S 255 0.0047605 A 4 1 7
1429 1482 S 255 0.0047605 S 9 2 7
1429 1489 S 254 0.0080695 A 6 2 7
1489 1824 A 267 0.000154959 S 5 1 3
