idFrom idTo symptFrom dayInfect pInfect symptTo lenExposed lenProdomal lenSymptomatic
-1 1427 ? 18 0 S 6 2 7
1489 1429 A 58 0.00652843 S 5 2 7
1465 1431 S 30 0.00867139 S 5 2 4
1431 1437 S 38 0.0112827 S 3 2 9
1465 1443 S 30 0.00867139 S 7 1 8
1427 1465 S 26 0.00859377 S 2 2 5
1465 1480 S 30 0.00867139 A 3 1 8
1563 1489 A 50 0.000664137 A 4 1 9
1443 1502 S 39 0.00271494 A 2 2 12
1480 1563 A 41 0.00441396 A 3 2 6
