idFrom idTo symptFrom dayInfect pInfect symptTo lenExposed lenProdomal lenSymptomatic
1685 1567 A 99 0.00586556 A 3 2 7
1711 1632 S 80 0.00375459 S 3 2 16
1700 1685 S 93 0.00125138 A 4 2 7
1707 1700 A 89 0.00327282 S 2 1 9
1782 1707 S 74 0.0014573 A 5 2 15
1764 1711 A 74 0.00165781 S 4 2 8
1707 1731 A 89 0.00327282 A 4 2 9
1711 1759 S 80 0.00375459 A 4 2 13
-1 1764 ? 57 0 A 5 1 13
1764 1782 A 70 0.00123891 S 3 1 10
