idFrom idTo symptFrom dayInfect pInfect symptTo lenExposed lenProdomal lenSymptomatic
1833 1709 A 27 0.00138998 S 4 1 12
1748 1719 S 36 0.00429342 S 2 2 10
1820 1748 A 30 0.00736175 S 3 2 6
1833 1820 A 21 0.000359193 A 3 2 8
-1 1833 ? 14 0 A 5 2 6
