idFrom idTo symptFrom dayInfect pInfect symptTo lenExposed lenProdomal lenSymptomatic
-1 194 ? 126 0 S 2 2 6
242 211 A 136 0.00305741 S 4 1 6
194 242 S 131 0.0573797 A 3 1 7
826 601 A 143 0.0121793 S 3 1 4
242 826 A 136 0.00305741 A 5 1 6
826 998 A 142 0.0140081 A 2 2 10
