idFrom idTo symptFrom dayInfect pInfect symptTo lenExposed lenProdomal lenSymptomatic
-1 213 ? 236 0 A 1 2 8
213 258 A 242 0.00418513 A 4 1 6
603 269 S 254 0.0384774 S 3 2 11
258 603 A 249 0.00076098 S 4 2 12
