idFrom idTo symptFrom dayInfect pInfect symptTo lenExposed lenProdomal lenSymptomatic
227 32 A 158 0.0629153 S 3 1 8
227 176 A 158 0.0629153 S 1 1 3
-1 227 ? 150 0 A 3 1 4
227 917 A 158 0.0629153 A 5 1 5
227 920 A 158 0.0629153 S 4 2 13
