idFrom idTo symptFrom dayInfect pInfect symptTo lenExposed lenProdomal lenSymptomatic
-1 3 ? 13 0 S 3 1 5
3 147 S 18 0.0363127 S 3 1 8
3 226 S 18 0.0363127 A 2 2 5
884 339 A 24 0.0105336 S 2 1 16
3 763 S 18 0.0363127 S 3 1 7
3 884 S 18 0.0363127 A 3 1 7
