idFrom idTo symptFrom dayInfect pInfect symptTo lenExposed lenProdomal lenSymptomatic
258 254 A 270 0.00646644 S 7 1 6
269 258 A 264 0.00457322 A 3 2 6
-1 269 ? 255 0 A 3 2 8
254 382 S 278 0.00921548 A 3 2 9
