idFrom idTo symptFrom dayInfect pInfect symptTo lenExposed lenProdomal lenSymptomatic
-1 3 ? 96 0 A 6 1 4
3 147 A 104 0.0206315 S 2 2 7
884 339 A 112 0.012484 S 4 1 8
884 407 A 112 0.012484 S 4 2 9
3 884 A 104 0.0206315 A 4 2 8
407 954 S 119 0.00775271 S 4 2 7
954 984 S 126 0.018508 A 3 2 14
