idFrom idTo symptFrom dayInfect pInfect symptTo lenExposed lenProdomal lenSymptomatic
90 4 A 215 0.0176551 S 1 1 9
634 41 A 210 0.0310248 S 1 1 6
615 90 S 205 0.0487038 A 7 1 10
4 452 S 218 0.00290992 S 4 1 4
-1 615 ? 200 0 S 4 2 5
615 634 S 205 0.0487038 A 4 2 6
634 691 A 210 0.0310248 S 4 1 5
634 869 A 210 0.0310248 S 4 2 10
90 909 A 222 0.00111757 S 2 1 7
