idFrom idTo symptFrom dayInfect pInfect symptTo lenExposed lenProdomal lenSymptomatic
-1 70 ? 226 0 S 7 2 9
122 119 A 239 0.0257508 A 3 2 4
70 122 S 234 0.0115273 A 3 2 13
255 132 A 248 0.0156356 A 3 2 13
119 202 A 247 0.00109717 A 2 1 7
122 255 A 240 0.000988903 A 7 1 13
255 275 A 248 0.0156356 A 5 2 11
202 545 A 250 0.00930161 S 4 2 9
