idFrom idTo symptFrom dayInfect pInfect symptTo lenExposed lenProdomal lenSymptomatic
1359 1204 A 134 0.0160954 S 3 1 6
1359 1214 A 137 0.00416124 S 4 1 8
1359 1342 A 134 0.0160954 S 3 2 7
-1 1359 ? 126 0 A 4 1 8
