idFrom idTo symptFrom dayInfect pInfect symptTo lenExposed lenProdomal lenSymptomatic
160 27 S 155 0.23172 A 2 1 7
-1 160 ? 151 0 S 3 2 9
160 178 S 155 0.23172 S 4 2 8
884 242 S 160 0.0424056 S 2 1 10
160 642 S 155 0.23172 S 4 2 6
160 884 S 155 0.23172 S 4 2 7
160 1209 S 155 0.23172 A 3 2 10
1209 1342 A 166 0.00543232 S 4 1 7
