idFrom idTo symptFrom dayInfect pInfect symptTo lenExposed lenProdomal lenSymptomatic
-1 20 ? 37 0 A 1 1 9
642 183 A 47 0.000509122 A 3 1 10
20 642 A 40 0.0332867 A 5 1 17
20 656 A 40 0.0332867 A 2 1 5
642 859 A 61 0.0647779 A 2 2 10
656 886 A 46 0.0619885 S 6 1 3
886 1204 S 54 0.0446815 A 3 2 7
656 1492 A 46 0.0619885 A 4 2 4
