idFrom idTo symptFrom dayInfect pInfect symptTo lenExposed lenProdomal lenSymptomatic
-1 27 ? 89 0 A 2 2 6
487 210 S 132 0.0639229 S 7 2 7
603 267 A 139 0.00116825 A 3 2 7
779 346 S 121 0.203423 S 5 2 5
27 387 A 97 0.0465944 S 4 1 10
1392 401 S 108 0.0591435 S 3 2 10
603 487 A 129 0.0304454 S 2 2 8
779 603 S 121 0.203423 A 3 2 15
401 779 S 114 0.025019 S 5 1 7
387 1392 S 102 0.0175982 S 4 2 13
