idFrom idTo symptFrom dayInfect pInfect symptTo lenExposed lenProdomal lenSymptomatic
-1 39 ? 36 0 A 3 1 6
468 59 S 50 0.0812019 A 3 1 10
39 219 A 43 0.0639112 S 3 1 9
339 257 A 61 0.00503227 S 3 1 10
39 339 A 43 0.0639112 A 3 2 13
39 407 A 43 0.0639112 S 2 1 5
39 468 A 43 0.0639112 S 4 2 5
59 793 A 61 0.0298304 A 1 2 7
39 871 A 43 0.0639112 S 3 2 6
468 939 S 50 0.0812019 S 3 2 7
