idFrom idTo symptFrom dayInfect pInfect symptTo lenExposed lenProdomal lenSymptomatic
-1 39 ? 83 0 A 5 1 8
39 71 A 93 0.162391 A 2 1 6
39 72 A 93 0.162391 S 2 2 7
39 219 A 93 0.162391 A 3 1 7
39 339 A 93 0.162391 S 3 1 9
39 407 A 93 0.162391 A 2 2 8
71 429 A 102 0.0279986 A 4 2 10
429 435 A 118 0.00378341 S 2 2 13
407 468 A 105 0.0396742 S 3 2 7
429 488 A 117 0.0460836 A 6 1 6
39 753 A 93 0.162391 A 4 2 6
39 871 A 93 0.162391 S 2 2 6
