idFrom idTo symptFrom dayInfect pInfect symptTo lenExposed lenProdomal lenSymptomatic
-1 39 ? 114 0 A 7 2 5
219 119 S 132 0.0577919 A 2 2 6
39 219 A 127 0.0203407 S 3 1 7
270 267 S 147 0.00996082 S 4 2 7
119 270 A 140 0.0340641 S 5 2 11
119 366 A 140 0.0340641 S 2 1 13
39 407 A 123 0.00800389 A 4 1 7
407 468 A 128 0.160812 A 3 1 8
39 871 A 122 0.0186809 S 3 2 8
407 923 A 128 0.160812 A 5 1 6
