idFrom idTo symptFrom dayInfect pInfect symptTo lenExposed lenProdomal lenSymptomatic
-1 39 ? 241 0 S 2 2 10
39 219 S 244 0.118854 S 2 1 5
39 407 S 244 0.118854 A 2 1 10
39 420 S 244 0.118854 S 3 2 9
39 468 S 244 0.118854 S 3 2 8
39 871 S 246 0.0380118 S 4 2 8
