idFrom idTo symptFrom dayInfect pInfect symptTo lenExposed lenProdomal lenSymptomatic
-1 39 ? 262 0 A 4 2 7
39 71 A 273 0.0267768 S 4 1 8
706 117 A 286 0.0552934 S 4 1 9
39 407 A 273 0.0267768 A 4 2 9
407 468 A 280 0.117615 A 4 1 10
407 706 A 281 0.0316078 A 3 1 7
39 889 A 273 0.0267768 S 2 2 7
407 923 A 280 0.117615 A 4 1 6
