idFrom idTo symptFrom dayInfect pInfect symptTo lenExposed lenProdomal lenSymptomatic
-1 3 ? 52 0 S 4 1 8
178 15 A 90 0.0722194 S 7 2 10
159 74 A 68 0.153402 S 3 1 6
3 159 S 58 0.0370681 A 6 1 9
884 178 S 83 0.0454328 A 3 2 7
353 197 S 91 0.0509495 S 4 2 6
74 333 S 72 0.0515825 S 4 1 5
884 353 S 82 0.0135544 S 7 1 7
159 440 A 68 0.153402 S 3 1 11
3 441 S 58 0.0370681 S 4 2 9
159 489 A 68 0.153402 S 6 1 3
159 763 A 65 0.0154152 A 2 2 8
763 884 A 75 0.109419 S 6 2 7
