idFrom idTo symptFrom dayInfect pInfect symptTo lenExposed lenProdomal lenSymptomatic
296 3 A 37 0.0127109 S 3 1 5
296 27 A 35 0.0175859 A 4 2 9
296 40 A 35 0.0175859 A 2 2 12
173 42 S 47 0.0174413 A 2 1 5
173 54 S 47 0.0174413 A 4 2 10
296 170 A 35 0.0175859 S 2 1 13
27 173 A 44 0.0068082 S 1 2 6
312 174 S 47 0.00654748 A 2 2 4
-1 229 ? 20 0 A 5 2 7
27 238 A 44 0.0068082 A 4 1 9
316 296 S 30 0.00142378 A 3 2 9
27 312 A 44 0.0068082 S 2 1 8
229 316 A 26 0.00918852 S 3 1 5
