idFrom idTo symptFrom dayInfect pInfect symptTo lenExposed lenProdomal lenSymptomatic
-1 3 ? 255 0 A 2 2 8
3 60 A 259 0.00919857 S 8 2 6
3 154 A 259 0.00919857 A 7 1 7
154 321 A 273 0.00554175 A 5 1 5
