idFrom idTo symptFrom dayInfect pInfect symptTo lenExposed lenProdomal lenSymptomatic
182 64 A 123 0.00936072 S 6 1 10
182 148 A 124 0.00351881 S 4 1 10
306 182 A 112 0.00604047 A 3 2 8
182 221 A 123 0.00936072 A 4 2 8
148 236 S 130 0.0043105 S 3 1 8
-1 306 ? 100 0 A 2 1 11
