idFrom idTo symptFrom dayInfect pInfect symptTo lenExposed lenProdomal lenSymptomatic
-1 9 ? 174 0 A 4 2 10
448 15 A 199 0.00605098 S 4 1 7
92 21 A 197 0.00162108 S 3 2 9
243 38 A 197 0.0027384 A 6 2 7
9 45 A 183 0.0154196 S 3 1 8
9 48 A 183 0.0154196 S 2 2 5
448 71 A 194 0.000726013 S 1 2 8
15 80 S 204 0.0319756 A 4 1 5
9 89 A 183 0.0154196 S 4 1 9
9 92 A 190 0.0425832 A 5 1 9
9 134 A 183 0.0154196 S 3 1 9
601 172 S 187 0.0118968 A 2 1 10
89 200 S 189 0.0210809 S 3 2 10
9 232 A 185 0.0116793 S 2 1 8
9 243 A 190 0.0425832 A 2 1 9
448 285 A 199 0.00605098 S 4 2 5
9 322 A 185 0.0116793 A 2 2 5
9 413 A 185 0.0116793 S 3 2 8
9 448 A 183 0.0154196 A 5 2 12
9 453 A 183 0.0154196 A 3 1 8
9 488 A 185 0.0116793 S 5 2 4
232 492 S 189 0.029578 S 4 1 7
9 601 A 185 0.0116793 S 1 1 10
232 706 S 189 0.029578 S 2 2 10
9 998 A 184 0.00203548 S 2 2 7
