idFrom idTo symptFrom dayInfect pInfect symptTo lenExposed lenProdomal lenSymptomatic
115 85 S 268 0.0361076 S 3 2 8
213 115 S 265 0.0423596 S 2 1 15
185 116 S 270 0.0208334 S 4 1 12
115 181 S 269 0.00544605 A 1 1 6
213 185 S 265 0.0423596 S 3 1 9
115 190 S 268 0.0361076 A 1 1 14
-1 213 ? 259 0 S 4 2 7
185 214 S 270 0.0208334 A 2 1 7
115 258 S 268 0.0361076 S 3 1 15
276 267 A 280 0.0031682 S 8 1 5
258 269 S 273 0.0169777 S 3 1 10
185 276 S 270 0.0208334 A 6 2 7
356 335 A 276 0.0181717 S 4 1 6
867 343 A 281 0.0138326 S 7 1 5
115 356 S 268 0.0361076 A 4 1 7
185 603 S 270 0.0208334 S 3 1 5
185 744 S 270 0.0208334 A 5 2 5
185 786 S 270 0.0208334 S 4 2 10
356 867 A 276 0.0181717 A 4 1 8
786 923 S 275 0.0174725 A 4 2 5
