idFrom idTo symptFrom dayInfect pInfect symptTo lenExposed lenProdomal lenSymptomatic
487 111 A 141 0.0186879 S 5 2 5
487 124 A 135 0.0215449 S 1 2 6
653 147 A 141 0.000908885 S 4 2 6
531 177 S 120 0.0260815 S 4 2 8
177 202 S 125 0.0662714 A 3 1 6
177 400 S 125 0.0662714 S 3 2 9
177 487 S 126 0.00859625 A 7 2 6
-1 531 ? 115 0 S 2 2 13
177 545 S 126 0.00859625 A 5 2 9
177 637 S 126 0.00859625 A 2 2 7
202 653 A 130 0.0116274 A 3 2 6
177 674 S 125 0.0662714 A 3 1 11
177 809 S 126 0.00859625 A 4 2 6
177 884 S 125 0.0662714 S 4 1 11
487 927 A 135 0.0215449 A 3 1 9
177 945 S 125 0.0662714 S 4 1 3
177 954 S 125 0.0662714 S 3 1 7
487 970 A 141 0.0186879 S 5 1 7
177 984 S 125 0.0662714 A 6 1 5
