idFrom idTo symptFrom dayInfect pInfect symptTo lenExposed lenProdomal lenSymptomatic
-1 9 ? 21 0 A 1 2 4
453 79 S 36 0.0139512 S 4 1 4
285 87 S 46 0.00355428 S 4 1 12
232 89 S 41 0.0355291 A 6 1 8
706 120 S 45 0.013207 A 3 1 6
232 200 S 41 0.0355291 A 2 2 8
89 211 A 48 0.0598809 A 5 1 9
492 232 A 37 0.00443781 S 2 1 10
492 285 A 42 0.00940995 S 2 1 11
496 311 A 31 0.00840041 A 5 2 6
232 322 S 41 0.0355291 S 2 2 8
496 453 A 31 0.00840041 S 4 1 10
120 488 A 53 0.000940328 A 5 2 6
496 492 A 31 0.00840041 A 3 1 7
9 496 A 26 0.000712247 A 1 1 8
232 706 S 41 0.0355291 S 3 2 9
232 751 S 41 0.0355291 S 6 2 11
232 826 S 41 0.0355291 A 3 2 4
89 845 A 48 0.0598809 S 5 2 7
