idFrom idTo symptFrom dayInfect pInfect symptTo lenExposed lenProdomal lenSymptomatic
-1 1434 ? 251 0 A 2 2 6
1434 1533 A 261 0.00203871 A 6 2 10
1533 1653 A 268 0.00189503 S 3 2 8
1533 1675 A 279 0.000717632 A 3 2 6
