idFrom idTo symptFrom dayInfect pInfect symptTo lenExposed lenProdomal lenSymptomatic
-1 1426 ? 276 0 S 7 1 11
1426 1434 S 285 0.00842872 S 3 1 4
1426 1439 S 285 0.00842872 A 6 1 4
1434 1443 S 289 0.0141921 S 3 1 11
1426 1498 S 285 0.00842872 S 4 2 8
1857 1807 A 301 0.0121993 S 2 2 6
1857 1831 A 301 0.0121993 S 5 2 7
1434 1857 S 289 0.0141921 A 5 1 7
1857 1895 A 301 0.0121993 S 4 1 5
