idFrom idTo symptFrom dayInfect pInfect symptTo lenExposed lenProdomal lenSymptomatic
-1 18 ? 211 0 A 3 1 6
488 200 A 226 0.124252 S 3 2 13
488 426 A 224 0.00859884 A 3 2 5
921 435 A 234 0.00349873 S 1 2 11
18 488 A 217 0.0564348 A 3 1 6
488 634 A 221 0.012505 S 3 1 5
18 650 A 216 0.02614 S 2 1 9
18 797 A 217 0.0564348 S 1 1 6
488 882 A 226 0.124252 S 3 2 7
488 894 A 226 0.124252 S 1 2 7
488 921 A 226 0.124252 A 3 1 6
