idFrom idTo symptFrom dayInfect pInfect symptTo lenExposed lenProdomal lenSymptomatic
-1 27 ? 83 0 S 3 2 5
779 401 S 105 0.101188 S 6 1 5
603 487 S 101 0.203456 S 4 1 7
954 603 S 98 0.00291628 S 2 1 9
603 649 S 101 0.203456 S 3 2 7
603 725 S 101 0.203456 S 6 1 10
603 779 S 101 0.203456 S 2 1 8
27 954 S 89 0.0301915 S 6 2 11
603 1362 S 101 0.203456 S 2 2 7
603 1392 S 101 0.203456 S 1 2 9
