idFrom idTo symptFrom dayInfect pInfect symptTo lenExposed lenProdomal lenSymptomatic
267 39 A 72 0.0609765 A 3 1 10
267 198 A 72 0.0609765 S 3 2 8
267 253 A 72 0.0609765 S 3 1 5
-1 267 ? 68 0 A 2 2 2
39 407 A 80 0.0083006 S 2 2 7
267 525 A 72 0.0609765 A 10 1 12
267 660 A 72 0.0609765 S 3 1 13
