idFrom idTo symptFrom dayInfect pInfect symptTo lenExposed lenProdomal lenSymptomatic
122 63 S 193 0.0755448 A 4 2 6
215 74 S 182 0.0054952 S 2 1 3
215 77 S 182 0.0054952 A 5 2 10
378 89 S 189 0.204711 S 9 2 9
77 97 A 199 0.013549 S 3 1 10
122 99 S 193 0.0755448 S 4 2 6
378 122 S 189 0.204711 S 3 2 7
74 141 S 186 0.0297137 S 3 2 11
77 159 A 199 0.013549 S 2 2 6
378 200 S 189 0.204711 S 3 2 8
-1 215 ? 175 0 S 5 1 6
215 242 S 182 0.0054952 S 4 2 13
634 248 A 201 0.0396724 S 1 2 10
603 272 A 195 0.0066761 A 7 1 7
634 322 A 201 0.0396724 S 4 1 7
74 333 S 186 0.0297137 A 3 2 6
215 378 S 182 0.0054952 S 4 2 7
77 429 A 199 0.013549 S 7 2 8
603 487 A 195 0.0066761 A 3 2 9
580 488 S 187 0.0661176 S 1 1 10
242 489 S 189 0.0655461 S 9 2 9
215 580 S 182 0.0054952 S 4 1 8
488 603 S 190 0.0300109 A 3 2 6
488 634 S 190 0.0300109 A 3 1 8
1260 778 S 200 0.00712432 S 5 2 11
634 908 A 201 0.0396724 S 3 2 6
200 921 S 195 0.020617 S 5 1 4
378 1090 S 189 0.204711 S 4 1 7
99 1164 S 198 0.0118698 S 4 2 5
603 1260 A 195 0.0066761 S 4 2 6
378 1492 S 189 0.204711 S 5 1 5
