idFrom idTo symptFrom dayInfect pInfect symptTo lenExposed lenProdomal lenSymptomatic
-1 27 ? 83 0 S 3 2 5
603 147 S 101 0.203456 S 2 1 8
603 219 S 101 0.203456 S 4 2 6
603 272 S 101 0.203456 S 5 2 5
603 346 S 101 0.203456 A 5 1 10
779 401 S 105 0.101188 S 6 1 5
603 487 S 101 0.203456 S 4 1 7
603 582 S 101 0.203456 A 2 2 9
954 603 S 98 0.00291628 S 2 1 9
603 649 S 101 0.203456 S 3 2 7
603 725 S 101 0.203456 S 6 1 10
603 779 S 101 0.203456 S 2 1 8
27 954 S 89 0.0301915 S 6 2 11
346 1245 A 109 0.0792084 S 4 1 10
603 1362 S 101 0.203456 S 2 2 7
603 1392 S 101 0.203456 S 1 2 9
