idFrom idTo symptFrom dayInfect pInfect symptTo lenExposed lenProdomal lenSymptomatic
193 160 S 27 0.0445852 S 2 2 8
250 193 S 21 0.0503836 S 4 1 6
-1 250 ? 12 0 S 7 2 6
531 272 S 45 0.0391383 S 4 2 7
959 531 S 40 0.0148298 S 4 1 8
531 650 S 45 0.0391383 A 1 2 13
531 744 S 45 0.0391383 S 4 1 7
160 884 S 32 0.0123784 A 7 1 14
160 959 S 32 0.0123784 S 6 1 5
