idFrom idTo symptFrom dayInfect pInfect symptTo lenExposed lenProdomal lenSymptomatic
-1 14 ? 192 0 A 4 2 17
14 27 A 204 0.010698 A 6 1 16
160 34 S 228 0.0524568 S 2 2 9
27 99 A 224 0.0235748 S 4 1 9
27 160 A 224 0.0235748 S 3 1 9
884 165 A 238 0.0085611 A 5 2 5
259 242 A 234 0.00248448 A 3 1 6
440 245 S 226 0.0464002 S 8 2 8
27 259 A 224 0.0235748 A 4 2 4
27 346 A 214 0.0143109 S 1 2 9
160 353 S 229 0.0517141 S 3 2 6
346 440 S 217 0.125291 S 6 2 5
353 460 S 234 0.00746463 S 4 1 7
346 603 S 217 0.125291 S 2 1 9
160 884 S 228 0.0524568 A 5 2 6
160 959 S 228 0.0524568 A 4 1 13
346 1362 S 217 0.125291 S 3 1 8
346 1392 S 217 0.125291 A 4 1 9
