idFrom idTo symptFrom dayInfect pInfect symptTo lenExposed lenProdomal lenSymptomatic
141 15 A 213 0.136345 A 5 2 11
1209 20 S 224 0.0306973 S 2 2 7
346 27 S 230 0.400322 S 1 2 5
407 39 A 239 0.0165072 S 5 2 3
429 71 S 222 0.124756 S 5 2 4
122 74 A 210 0.0618706 A 3 2 4
122 77 A 210 0.0618706 A 4 2 8
122 97 A 210 0.0618706 A 3 1 6
122 99 A 210 0.0618706 A 3 2 5
-1 122 ? 199 0 A 4 2 7
122 141 A 209 0.0464429 A 3 2 8
122 147 A 210 0.0618706 S 3 1 12
353 156 A 240 0.0998677 S 2 2 11
74 159 A 219 0.024792 S 5 2 6
353 160 A 240 0.0998677 S 2 1 6
15 178 A 223 0.0389419 A 5 1 10
353 197 A 240 0.0998677 S 4 1 13
122 215 A 210 0.0618706 S 5 2 6
122 250 A 210 0.0618706 A 9 2 7
15 261 A 228 0.0873645 S 3 1 9
15 295 A 228 0.0873645 S 7 2 5
649 346 A 227 0.00420123 S 2 1 5
15 353 A 228 0.0873645 A 6 1 8
15 372 A 223 0.0389419 A 3 2 8
1492 378 A 216 0.0179725 S 2 2 6
725 387 S 249 0.0654075 S 3 1 5
603 401 A 240 0.0147562 A 4 1 10
346 407 S 230 0.400322 A 3 1 6
122 426 A 210 0.0618706 S 3 1 12
147 429 S 214 0.00746828 S 5 2 8
122 440 A 209 0.0464429 A 3 1 6
141 460 A 213 0.136345 A 2 2 7
353 464 A 240 0.0998677 S 7 1 7
426 488 S 215 0.041431 S 4 2 16
15 491 A 228 0.0873645 S 4 1 9
346 603 S 230 0.400322 A 5 2 9
353 626 A 240 0.0998677 S 2 1 12
401 634 A 246 0.0573398 S 6 2 7
429 649 S 222 0.124756 A 4 1 7
1209 656 S 224 0.0306973 S 4 2 7
97 720 A 216 0.0641399 S 3 2 10
603 725 A 245 0.0162891 S 3 2 8
1209 741 S 224 0.0306973 A 3 2 7
346 779 S 230 0.400322 A 7 1 9
1492 886 A 223 0.00235825 A 3 1 7
141 909 A 213 0.136345 A 6 2 12
250 954 A 225 0.0702904 A 3 1 7
122 985 A 210 0.0618706 A 1 2 11
122 1090 A 210 0.0618706 S 2 2 10
215 1209 S 218 0.00628245 S 5 1 16
603 1245 A 240 0.0147562 S 6 1 9
122 1260 A 210 0.0618706 S 5 1 5
1209 1323 S 224 0.0306973 A 4 2 4
346 1362 S 230 0.400322 A 2 2 8
122 1492 A 210 0.0618706 A 4 1 8
