idFrom idTo symptFrom dayInfect pInfect symptTo lenExposed lenProdomal lenSymptomatic
-1 14 ? 136 0 A 3 1 10
115 58 A 176 0.0114898 S 3 2 9
181 115 A 165 0.0162491 A 5 1 6
14 176 A 141 0.0132011 S 4 2 6
335 181 A 154 0.00167552 A 2 1 9
784 185 S 178 0.00489191 A 5 2 11
115 214 A 176 0.0114898 A 4 1 10
14 256 A 143 0.0229611 S 3 1 7
603 269 A 173 0.000247458 S 4 1 18
14 306 A 141 0.0132011 A 3 2 11
14 335 A 141 0.0132011 A 5 2 10
14 356 A 141 0.0132011 S 3 1 14
181 603 A 165 0.0162491 A 3 1 7
115 784 A 176 0.0114898 S 1 1 8
