idFrom idTo symptFrom dayInfect pInfect symptTo lenExposed lenProdomal lenSymptomatic
176 14 A 34 0.00701107 S 3 2 5
176 58 A 25 0.00661593 S 4 1 8
214 176 A 19 0.0349558 A 4 2 13
214 185 A 19 0.0349558 A 4 2 8
176 213 A 24 0.015663 A 5 2 9
-1 214 ? 12 0 A 3 2 5
214 843 A 19 0.0349558 S 3 2 13
