idFrom idTo symptFrom dayInfect pInfect symptTo lenExposed lenProdomal lenSymptomatic
-1 3 ? 109 0 S 2 2 10
477 27 A 136 0.00163931 S 3 2 10
147 28 A 127 0.00684454 S 5 2 5
3 147 S 114 0.0507481 A 2 1 10
3 184 S 114 0.0507481 A 9 2 6
763 295 S 123 0.0180288 A 7 1 8
3 339 S 114 0.0507481 S 5 1 8
295 407 A 135 0.0136943 S 1 2 8
147 477 A 127 0.00684454 A 4 2 6
3 653 S 114 0.0507481 S 3 2 9
3 763 S 114 0.0507481 S 8 1 7
3 884 S 114 0.0507481 S 4 2 9
