idFrom idTo symptFrom dayInfect pInfect symptTo lenExposed lenProdomal lenSymptomatic
-1 3 ? 170 0 S 3 2 7
3 147 S 175 0.0388867 S 1 1 9
3 226 S 175 0.0388867 A 4 2 6
884 268 A 184 0.0294654 A 3 1 9
3 339 S 175 0.0388867 S 2 1 3
3 884 S 175 0.0388867 A 2 2 7
