idFrom idTo symptFrom dayInfect pInfect symptTo lenExposed lenProdomal lenSymptomatic
327 239 A 165 0.00188696 A 2 1 6
372 327 S 153 0.00247363 A 2 1 12
884 339 A 183 0.00846875 S 1 2 9
626 372 S 151 0.00285694 S 1 1 9
-1 626 ? 145 0 S 4 1 8
626 653 S 150 0.0146092 A 3 2 10
327 763 A 156 0.00781357 A 2 2 12
763 884 A 172 0.0219375 A 3 2 7
