idFrom idTo symptFrom dayInfect pInfect symptTo lenExposed lenProdomal lenSymptomatic
-1 4 ? 32 0 A 4 1 8
125 90 S 44 0.0236639 S 2 2 10
333 125 S 39 0.0118232 S 2 2 8
125 325 S 44 0.0236639 A 4 2 9
4 333 A 37 0.00702887 S 1 2 9
4 424 A 37 0.00702887 A 4 1 6
90 452 S 47 0.0184288 S 3 1 15
90 491 S 47 0.0184288 A 6 2 9
90 615 S 47 0.0184288 S 5 2 13
333 893 S 39 0.0118232 S 4 2 5
