idFrom idTo symptFrom dayInfect pInfect symptTo lenExposed lenProdomal lenSymptomatic
-1 1212 ? 41 0 S 2 2 8
1339 1216 A 47 0.0108429 A 3 1 7
1295 1232 S 51 0.0573808 S 3 1 5
1212 1295 S 44 0.0278372 S 4 2 10
1212 1320 S 44 0.0278372 S 3 2 7
1212 1324 S 46 0.0251294 S 4 1 10
1212 1336 S 44 0.0278372 S 4 2 9
1212 1339 S 44 0.0278372 A 2 1 5
1212 1345 S 46 0.0251294 S 3 1 5
1212 1359 S 46 0.0251294 S 3 1 9
1295 1401 S 51 0.0573808 S 5 1 11
1212 1512 S 46 0.0251294 A 8 1 6
1212 1518 S 44 0.0278372 S 3 1 9
1216 1805 A 56 0.00136319 A 3 2 6
