idFrom idTo symptFrom dayInfect pInfect symptTo lenExposed lenProdomal lenSymptomatic
1518 1067 A 96 0.0124162 S 5 2 5
1342 1204 S 74 0.000706405 S 4 1 6
1805 1216 A 65 0.0165335 S 4 1 12
1518 1295 A 99 0.000627073 S 4 2 11
1216 1339 S 70 0.118442 S 3 1 9
1216 1342 S 70 0.118442 S 3 1 8
1342 1359 S 74 0.000706405 A 4 2 9
1216 1512 S 70 0.118442 S 4 2 8
1543 1518 S 89 0.0371113 A 5 2 8
1359 1519 A 79 0.00753705 S 2 2 3
1359 1543 A 86 0.0016471 S 2 2 9
1216 1784 S 70 0.118442 S 4 2 12
-1 1805 ? 51 0 A 6 1 7
