idFrom idTo symptFrom dayInfect pInfect symptTo lenExposed lenProdomal lenSymptomatic
-1 37 ? 165 0 A 4 1 8
274 199 S 181 0.00918114 S 7 2 5
37 203 A 170 0.0130719 A 3 2 7
37 270 A 176 0.00353331 S 3 2 8
203 274 A 177 0.00249865 S 3 1 8
