idFrom idTo symptFrom dayInfect pInfect symptTo lenExposed lenProdomal lenSymptomatic
-1 4 ? 277 0 A 1 1 10
4 5 A 280 0.00283393 A 2 2 9
90 85 S 288 0.00830795 A 3 2 5
4 90 A 282 0.00198489 S 3 2 7
90 98 S 288 0.00830795 A 4 1 8
4 111 A 285 0.0111094 S 5 1 11
5 169 A 288 0.00539902 S 4 2 4
90 264 S 288 0.00830795 S 2 2 14
