idFrom idTo symptFrom dayInfect pInfect symptTo lenExposed lenProdomal lenSymptomatic
5 4 A 16 0.0118941 S 3 2 7
-1 5 ? 7 0 A 3 1 6
5 46 A 14 0.0031464 A 2 2 7
5 66 A 16 0.0118941 S 3 1 13
5 97 A 14 0.0031464 A 3 1 6
268 157 S 20 0.00378749 S 5 2 14
5 268 A 16 0.0118941 S 3 1 7
46 271 A 23 0.00857029 S 5 2 6
5 283 A 14 0.0031464 A 5 2 5
