idFrom idTo symptFrom dayInfect pInfect symptTo lenExposed lenProdomal lenSymptomatic
-1 5 ? 258 0 A 3 2 8
5 66 A 262 0.00587902 S 3 1 13
66 97 S 267 0.00582367 A 3 1 6
239 157 A 276 0.00554038 A 3 1 9
239 229 A 276 0.00554038 S 3 1 7
5 239 A 262 0.00587902 A 4 1 12
5 268 A 262 0.00587902 S 4 1 11
