idFrom idTo symptFrom dayInfect pInfect symptTo lenExposed lenProdomal lenSymptomatic
-1 73 ? 204 0 S 4 1 4
73 134 S 210 0.0173914 A 5 1 8
73 135 S 210 0.0173914 S 5 2 7
135 285 S 216 0.00618006 S 3 2 4
