idFrom idTo symptFrom dayInfect pInfect symptTo lenExposed lenProdomal lenSymptomatic
185 62 A 81 0.000112138 A 4 1 13
-1 123 ? 70 0 A 2 2 5
123 185 A 76 0.00148157 A 1 2 8
62 201 A 96 0.00236731 A 4 2 8
