idFrom idTo symptFrom dayInfect pInfect symptTo lenExposed lenProdomal lenSymptomatic
-1 3 ? 1 0 A 5 2 8
313 4 S 32 0.0113449 S 3 2 6
3 11 A 13 0.0174053 A 3 2 12
313 19 S 32 0.0113449 S 2 2 8
11 45 A 25 0.0011238 S 8 1 11
11 150 A 26 0.0112219 A 4 2 4
11 313 A 26 0.0112219 S 4 2 13
11 315 A 26 0.0112219 S 6 1 5
