idFrom idTo symptFrom dayInfect pInfect symptTo lenExposed lenProdomal lenSymptomatic
95 1 S 45 0.0271754 S 4 1 8
-1 3 ? 30 0 A 2 1 5
291 95 A 43 0.0050608 S 1 2 6
95 105 S 45 0.0271754 S 3 2 8
95 185 S 45 0.0271754 S 6 1 11
95 261 S 45 0.0271754 S 5 1 3
291 268 A 43 0.0050608 S 3 2 8
3 291 A 34 0.00160433 A 5 1 10
95 311 S 45 0.0271754 A 5 1 9
