idFrom idTo symptFrom dayInfect pInfect symptTo lenExposed lenProdomal lenSymptomatic
-1 3 ? 244 0 A 3 1 9
146 12 S 254 0.0350837 S 1 2 9
3 42 A 248 0.00461897 S 4 1 9
146 87 S 254 0.0350837 S 6 2 8
87 94 S 262 0.0053613 A 5 2 5
146 111 S 254 0.0350837 S 2 2 5
3 119 A 248 0.00461897 S 4 1 8
3 146 A 249 0.00291114 S 4 2 10
146 291 S 254 0.0350837 A 3 1 9
146 326 S 255 0.00485763 S 3 2 7
