idFrom idTo symptFrom dayInfect pInfect symptTo lenExposed lenProdomal lenSymptomatic
-1 1434 ? 237 0 S 3 1 8
1563 1437 S 254 0.00459811 S 5 1 8
1434 1443 S 242 0.00612753 A 3 1 7
1563 1457 S 254 0.00459811 S 3 2 11
1434 1475 S 242 0.00612753 S 5 1 9
1837 1482 A 255 0.00380277 S 6 1 11
1516 1483 A 267 0.000741346 A 5 1 10
1525 1503 S 256 0.00835909 S 4 2 11
1525 1504 S 256 0.00835909 A 2 1 10
1525 1516 S 256 0.00835909 A 4 1 6
1532 1519 S 252 0.0151477 A 2 1 14
1532 1525 S 252 0.0151477 S 1 2 9
1532 1528 S 252 0.0151477 S 3 1 13
1885 1532 S 246 0.00640293 S 5 2 5
1532 1533 S 252 0.0151477 S 5 1 6
1532 1538 S 252 0.0151477 A 5 1 9
1837 1539 A 252 0.000409115 A 4 1 6
1837 1545 A 255 0.00380277 S 4 2 4
1434 1546 S 242 0.00612753 A 1 1 11
1532 1548 S 252 0.0151477 A 5 2 6
1532 1549 S 252 0.0151477 S 2 1 8
1443 1563 A 249 0.000706696 S 2 2 7
1528 1585 S 256 0.00410339 S 5 1 14
1628 1613 S 256 0.001794 S 4 2 9
1525 1618 S 256 0.00835909 S 4 1 7
1532 1628 S 252 0.0151477 S 2 1 6
1847 1632 A 266 0.00365283 A 1 2 7
1837 1664 A 255 0.00380277 A 2 2 7
1457 1668 S 259 0.0026035 A 3 2 5
1528 1705 S 256 0.00410339 S 2 2 8
1628 1722 S 256 0.001794 A 7 2 8
1668 1751 A 265 0.000767423 S 5 1 7
1528 1815 S 256 0.00410339 S 4 1 5
1434 1821 S 242 0.00612753 A 4 1 11
1434 1837 S 242 0.00612753 A 6 2 6
1528 1847 S 256 0.00410339 A 4 2 6
1532 1857 S 252 0.0151477 S 4 2 4
1434 1885 S 242 0.00612753 S 3 1 10
1434 1895 S 242 0.00612753 A 2 1 11
1628 1909 S 256 0.001794 S 3 2 6
1837 1911 A 255 0.00380277 A 6 1 7
