idFrom idTo symptFrom dayInfect pInfect symptTo lenExposed lenProdomal lenSymptomatic
1475 1426 A 254 0.00759016 S 5 2 8
1431 1427 A 243 0.00347301 A 4 1 8
1498 1428 A 257 0.0101415 S 2 2 11
1475 1429 A 254 0.00759016 S 3 1 5
1443 1431 A 235 0.000323181 A 6 1 9
1532 1434 A 242 0.000319554 S 2 1 12
1431 1439 A 242 0.000833984 S 4 2 8
1475 1441 A 254 0.00759016 S 3 2 10
-1 1443 ? 221 0 A 5 2 7
1431 1453 A 242 0.000833984 A 5 1 12
1453 1457 A 248 0.00111452 A 4 1 9
1453 1458 A 260 0.00875236 S 4 1 10
1522 1468 A 249 0.00856447 S 2 1 7
1431 1475 A 248 0.0136307 A 2 1 8
1502 1477 S 239 0.00557364 S 2 2 11
1498 1479 A 257 0.0101415 A 5 2 6
1431 1480 A 248 0.0136307 S 5 1 11
1475 1489 A 254 0.00759016 S 2 2 7
1522 1498 A 249 0.00856447 A 2 1 8
1443 1501 A 227 0.00283664 A 2 1 10
1501 1502 A 232 0.00190304 S 5 2 8
1477 1522 S 242 9.90907e-05 A 2 2 13
1885 1532 A 236 0.00886304 A 3 1 7
1475 1585 A 254 0.00759016 S 3 1 8
1439 1705 S 249 0.00190819 S 1 1 6
1475 1824 A 254 0.00759016 S 7 2 10
1501 1885 A 231 0.000336641 A 2 2 10
