idFrom idTo symptFrom dayInfect pInfect symptTo lenExposed lenProdomal lenSymptomatic
1435 1426 S 28 0.000825068 A 4 1 9
1482 1427 S 50 0.0095662 S 4 1 9
-1 1435 ? 24 0 S 3 1 9
1426 1459 A 40 0.0124221 S 1 1 7
1459 1479 S 43 0.011113 S 1 1 8
1459 1482 S 43 0.011113 S 5 2 11
1684 1663 S 43 0.0010458 S 5 2 7
1426 1684 A 40 0.0124221 S 2 2 8
1426 1824 A 40 0.0124221 A 3 2 6
1426 1837 A 40 0.0124221 S 6 2 10
