idFrom idTo symptFrom dayInfect pInfect symptTo lenExposed lenProdomal lenSymptomatic
-1 1437 ? 53 0 A 5 2 7
1437 1453 A 60 0.00220219 S 3 1 12
1453 1457 S 64 0.0154885 S 1 2 7
1453 1461 S 64 0.0154885 S 6 2 6
1477 1468 A 68 0.0123308 S 6 2 14
1437 1477 A 60 0.00220219 A 4 1 9
1457 1498 S 67 0.00714488 S 2 2 8
1477 1501 A 68 0.0123308 A 1 1 9
1437 1563 A 60 0.00220219 S 4 1 5
1477 1578 A 68 0.0123308 A 6 1 10
1457 1665 S 67 0.00714488 S 3 1 12
