idFrom idTo symptFrom dayInfect pInfect symptTo lenExposed lenProdomal lenSymptomatic
1475 1426 A 254 0.00759016 S 5 2 8
1431 1427 A 243 0.00347301 A 4 1 8
1475 1429 A 254 0.00759016 S 3 1 5
1443 1431 A 235 0.000323181 A 6 1 9
1431 1437 A 248 0.0136307 A 2 1 5
1475 1441 A 254 0.00759016 S 3 2 10
-1 1443 ? 221 0 A 5 2 7
1431 1457 A 248 0.0136307 A 4 1 9
1431 1465 A 248 0.0136307 S 5 2 9
1431 1475 A 248 0.0136307 A 2 1 8
1441 1477 S 260 0.0108265 S 2 2 11
1431 1480 A 248 0.0136307 S 5 1 11
1475 1489 A 254 0.00759016 S 2 2 7
1431 1885 A 248 0.0136307 A 2 2 10
