idFrom idTo symptFrom dayInfect pInfect symptTo lenExposed lenProdomal lenSymptomatic
-1 1427 ? 263 0 A 7 1 12
1443 1431 A 289 0.012229 A 8 2 5
1427 1443 A 277 0.00625712 A 3 2 8
1431 1453 A 304 0.00219021 S 7 1 11
1443 1465 A 289 0.012229 A 10 2 8
1431 1480 A 299 0.0034376 A 3 2 8
1431 1486 A 304 0.00219021 S 3 1 11
1443 1533 A 289 0.012229 S 5 1 11
1443 1578 A 289 0.012229 S 2 2 11
1533 1585 S 296 0.00826642 S 3 2 5
