idFrom idTo symptFrom dayInfect pInfect symptTo lenExposed lenProdomal lenSymptomatic
-1 14 ? 64 0 A 5 1 9
14 335 A 74 0.00714156 S 4 2 8
923 621 S 78 0.0106368 A 3 2 15
14 923 A 74 0.00714156 S 3 1 8
