idFrom idTo symptFrom dayInfect pInfect symptTo lenExposed lenProdomal lenSymptomatic
-1 15 ? 41 0 A 4 2 7
15 45 A 53 0.0351585 A 3 1 7
45 48 A 61 0.0505874 S 4 1 10
674 72 A 67 0.00751589 A 3 1 11
45 79 A 63 0.0178759 A 5 1 13
45 120 A 61 0.0505874 S 8 1 11
674 202 A 67 0.00751589 S 4 1 6
45 232 A 63 0.0178759 S 3 2 6
15 242 A 53 0.0351585 S 3 1 8
120 285 S 70 0.00803276 S 3 1 10
120 311 S 70 0.00803276 S 2 2 6
15 413 A 53 0.0351585 S 2 1 7
311 453 S 74 0.0056012 S 5 1 5
674 471 A 67 0.00751589 S 3 1 7
674 475 A 81 0.0131361 S 2 1 4
45 488 A 63 0.0178759 A 6 2 5
45 674 A 63 0.0178759 A 3 1 17
72 954 A 71 0.0164554 S 4 2 9
