idFrom idTo symptFrom dayInfect pInfect symptTo lenExposed lenProdomal lenSymptomatic
147 3 A 108 0.00130581 S 4 2 9
353 61 S 129 0.0174389 S 5 1 7
-1 147 ? 97 0 A 6 2 10
884 226 A 120 0.0236198 S 3 2 3
353 295 S 131 0.0381322 S 2 1 11
884 339 A 120 0.0236198 A 3 2 7
226 353 S 124 0.00066589 S 4 2 8
3 504 S 113 0.00368145 S 6 2 10
3 884 S 113 0.00368145 A 5 2 9
