idFrom idTo symptFrom dayInfect pInfect symptTo lenExposed lenProdomal lenSymptomatic
866 38 S 214 0.0402703 S 5 2 12
866 54 S 214 0.0402703 S 4 1 6
-1 151 ? 206 0 A 2 2 5
866 156 S 214 0.0402703 S 4 2 4
866 159 S 214 0.0402703 S 3 2 7
38 243 S 221 0.0132872 A 3 2 6
866 525 S 214 0.0402703 A 3 1 13
866 642 S 214 0.0402703 S 2 1 8
866 687 S 214 0.0402703 S 2 1 9
151 866 A 210 0.00962652 S 3 1 6
38 869 S 221 0.0132872 S 3 2 5
866 874 S 214 0.0402703 S 5 1 6
