idFrom idTo symptFrom dayInfect pInfect symptTo lenExposed lenProdomal lenSymptomatic
232 89 A 152 0.0107259 A 4 1 8
232 120 A 152 0.0107259 S 5 2 8
-1 194 ? 126 0 S 2 2 6
826 200 A 143 0.0121793 A 5 2 7
242 211 A 136 0.00305741 S 4 1 6
826 232 A 143 0.0121793 A 4 1 7
194 242 S 131 0.0573797 A 3 1 7
492 388 S 166 0.0314094 S 4 1 10
89 492 A 163 0.00583588 S 2 2 4
492 496 S 166 0.0314094 S 5 1 5
826 601 A 143 0.0121793 S 3 1 4
89 706 A 162 0.000185007 A 5 1 9
242 826 A 136 0.00305741 A 5 1 6
826 998 A 142 0.0140081 A 2 2 10
