idFrom idTo symptFrom dayInfect pInfect symptTo lenExposed lenProdomal lenSymptomatic
-1 1 ? 215 0 S 7 1 8
202 55 A 251 0.000150604 S 4 1 10
1 117 S 224 0.0210652 A 2 2 10
1 196 S 224 0.0210652 S 2 2 8
779 202 A 237 0.000982407 A 3 2 9
1 205 S 224 0.0210652 A 4 2 4
117 240 A 235 0.0024887 A 3 1 8
1 494 S 224 0.0210652 A 4 2 4
939 779 A 231 0.0104709 A 2 1 12
1 939 S 224 0.0210652 A 3 1 7
