idFrom idTo symptFrom dayInfect pInfect symptTo lenExposed lenProdomal lenSymptomatic
-1 21 ? 239 0 A 6 1 6
488 120 S 269 0.00114194 S 9 1 13
826 200 A 257 0.00577236 S 5 2 2
826 232 A 256 0.0018869 S 3 1 6
21 242 A 247 0.0211919 S 4 1 11
826 322 A 258 0.010338 S 2 1 7
200 488 S 264 0.0144242 S 3 2 8
826 706 A 257 0.00577236 S 5 1 17
21 826 A 247 0.0211919 A 3 1 11
