idFrom idTo symptFrom dayInfect pInfect symptTo lenExposed lenProdomal lenSymptomatic
-1 387 ? 175 0 S 5 2 7
387 513 S 182 0.0992781 A 3 1 7
387 658 S 182 0.0992781 S 4 1 5
387 908 S 182 0.0992781 S 2 2 10
