idFrom idTo symptFrom dayInfect pInfect symptTo lenExposed lenProdomal lenSymptomatic
-1 3 ? 108 0 A 1 1 5
160 61 A 136 0.0273958 S 4 2 10
3 147 A 112 0.0131305 S 4 2 7
504 160 A 127 0.0126328 A 5 2 7
160 184 A 136 0.0273958 S 3 1 7
353 226 S 117 0.0255373 A 2 1 7
372 327 S 144 0.0149604 S 4 2 9
3 353 A 112 0.0131305 S 3 1 7
184 372 S 140 0.0159207 S 3 2 6
184 429 S 140 0.0159207 A 2 2 8
160 464 A 136 0.0273958 A 5 1 11
353 504 S 117 0.0255373 A 3 1 15
160 763 A 136 0.0273958 S 5 1 11
504 979 A 127 0.0126328 A 5 1 9
