idFrom idTo symptFrom dayInfect pInfect symptTo lenExposed lenProdomal lenSymptomatic
-1 3 ? 116 0 A 3 1 6
226 28 A 146 0.0132427 A 3 1 8
353 61 A 135 0.0399215 S 4 2 7
226 160 A 146 0.0132427 A 8 1 6
353 226 A 136 0.00802123 A 2 1 8
3 339 A 122 0.000189183 S 2 1 8
339 353 S 126 0.0163665 A 3 2 6
353 763 A 136 0.00802123 A 2 1 4
339 884 S 126 0.0163665 S 4 2 8
