idFrom idTo symptFrom dayInfect pInfect symptTo lenExposed lenProdomal lenSymptomatic
447 70 A 41 0.0273042 S 7 1 11
447 119 A 41 0.0273042 A 7 1 11
447 132 A 41 0.0273042 S 2 2 9
429 171 S 37 0.0067717 A 6 2 5
70 199 S 50 0.0764767 A 1 2 4
327 240 A 49 0.0203738 S 3 2 7
119 272 A 53 0.000165415 S 3 1 6
441 295 S 33 0.0271982 S 1 1 10
447 327 A 41 0.0273042 A 3 1 12
327 372 A 49 0.0203738 S 5 2 8
441 429 S 33 0.0271982 S 2 1 4
-1 441 ? 26 0 S 5 1 9
441 447 S 33 0.0271982 A 5 1 6
