idFrom idTo symptFrom dayInfect pInfect symptTo lenExposed lenProdomal lenSymptomatic
-1 3 ? 256 0 A 4 1 8
295 72 S 263 0.0133575 A 5 2 10
3 147 A 261 0.0237338 A 3 1 6
674 177 S 278 0.0298337 A 3 2 8
3 295 A 261 0.0237338 S 1 2 7
884 339 A 273 0.0144129 A 4 1 7
884 353 A 273 0.0144129 S 6 1 8
177 400 A 285 0.0266891 S 6 2 9
295 407 S 263 0.0133575 A 3 1 5
3 653 A 261 0.0237338 S 5 1 9
72 674 A 271 0.00937378 S 4 2 6
295 763 S 263 0.0133575 A 4 2 7
3 884 A 261 0.0237338 A 7 1 8
