idFrom idTo symptFrom dayInfect pInfect symptTo lenExposed lenProdomal lenSymptomatic
327 28 A 256 0.00616639 S 2 2 6
544 160 A 234 0.0366441 S 2 2 10
544 184 A 234 0.0366441 A 4 2 7
160 226 S 238 0.000840578 A 5 1 13
544 239 A 234 0.0366441 S 5 2 14
544 268 A 239 0.0032883 A 5 1 6
184 327 A 244 0.00563682 A 4 2 9
763 544 A 223 0.0254496 A 8 2 8
-1 763 ? 216 0 A 5 1 7
763 884 A 223 0.0254496 A 4 1 7
