idFrom idTo symptFrom dayInfect pInfect symptTo lenExposed lenProdomal lenSymptomatic
210 15 S 45 0.0515769 S 3 1 15
92 71 S 40 0.0503562 A 3 1 10
-1 92 ? 35 0 S 4 2 11
210 120 S 45 0.0515769 A 5 1 9
210 172 S 45 0.0515769 A 1 2 9
92 210 S 41 0.0195931 S 3 2 7
92 285 S 40 0.0503562 S 2 1 10
172 488 A 54 0.0183938 S 5 1 14
92 496 S 40 0.0503562 A 5 2 6
210 743 S 45 0.0515769 S 1 1 15
92 845 S 41 0.0195931 S 1 2 10
