idFrom idTo symptFrom dayInfect pInfect symptTo lenExposed lenProdomal lenSymptomatic
-1 9 ? 194 0 S 4 2 11
210 15 A 222 0.0115999 A 4 1 6
9 21 S 201 0.054651 S 3 2 6
9 45 S 201 0.054651 A 4 1 13
448 79 A 207 0.00657415 S 6 1 12
210 80 A 224 0.0220131 A 3 2 4
488 89 A 224 0.00764278 S 5 1 9
210 120 A 224 0.0220131 A 6 1 15
45 134 A 218 0.00532376 S 3 2 13
120 172 A 233 0.00844375 S 6 1 7
45 210 A 213 0.0029587 A 2 1 10
9 232 S 201 0.054651 S 8 2 7
210 253 A 219 0.017569 S 2 1 8
9 254 S 201 0.054651 S 3 1 15
488 285 A 224 0.00764278 A 6 2 9
45 311 A 213 0.0029587 A 1 1 7
9 327 S 201 0.054651 S 8 2 7
9 448 S 201 0.054651 A 3 2 6
488 450 A 224 0.00764278 A 3 1 8
80 468 A 229 0.0313188 S 3 2 5
448 480 A 207 0.00657415 S 5 1 6
210 488 A 219 0.017569 A 3 2 9
210 492 A 224 0.0220131 A 2 1 10
134 496 S 223 0.0131532 S 2 1 7
9 751 S 201 0.054651 S 4 2 5
327 763 S 212 0.00389788 S 6 2 10
751 826 S 206 9.95049e-05 S 3 1 7
210 845 A 224 0.0220131 A 5 1 9
