idFrom idTo symptFrom dayInfect pInfect symptTo lenExposed lenProdomal lenSymptomatic
-1 14 ? 136 0 A 3 1 10
335 58 A 150 0.00178101 S 3 2 9
181 115 A 165 0.0162491 A 5 1 6
115 116 A 176 0.0114898 S 2 1 10
14 176 A 141 0.0132011 S 4 2 6
335 181 A 154 0.00167552 A 2 1 9
784 185 S 178 0.00489191 A 5 2 11
213 190 A 197 0.0115021 S 4 1 5
258 213 A 190 0.00493624 A 3 1 10
115 214 A 176 0.0114898 A 4 1 10
176 254 S 147 0.000874952 S 3 1 5
14 256 A 143 0.0229611 S 3 1 7
269 258 S 178 0.000450156 A 4 1 13
786 267 A 193 0.0135997 S 4 1 6
603 269 A 173 0.000247458 S 4 1 18
786 276 A 193 0.0135997 S 2 2 10
14 306 A 141 0.0132011 A 3 2 11
14 335 A 141 0.0132011 A 5 2 10
14 356 A 141 0.0132011 S 3 1 14
58 390 S 156 0.00296691 S 2 1 8
58 450 S 156 0.00296691 S 4 2 9
181 603 A 165 0.0162491 A 3 1 7
185 744 A 186 0.00570004 S 4 2 9
335 765 A 150 0.00178101 S 8 1 9
115 784 A 176 0.0114898 S 1 1 8
185 786 A 186 0.00570004 A 5 2 12
58 836 S 156 0.00296691 S 3 1 6
390 938 S 159 0.0158962 S 3 2 12
