idFrom idTo symptFrom dayInfect pInfect symptTo lenExposed lenProdomal lenSymptomatic
243 34 A 228 0.0110608 A 2 2 7
866 38 S 214 0.0402703 S 5 2 12
151 54 A 211 0.00664667 S 4 1 6
-1 151 ? 206 0 A 2 2 5
866 156 S 214 0.0402703 S 4 2 4
866 159 S 214 0.0402703 S 3 2 7
243 201 A 228 0.0110608 S 2 2 7
38 220 S 221 0.0132872 A 4 1 10
290 236 A 267 0.0353771 S 4 1 7
38 243 S 221 0.0132872 A 3 2 6
1543 279 A 226 0.000950488 S 4 1 10
1784 290 A 253 0.013782 A 5 1 9
1485 366 S 240 0.00813415 S 3 2 6
841 376 S 267 0.0563205 S 4 1 9
159 420 S 218 0.00880827 S 1 1 10
290 466 A 259 0.0128979 S 6 1 8
290 491 A 267 0.0353771 A 2 1 8
290 510 A 267 0.0353771 S 4 1 7
866 525 S 214 0.0402703 A 3 1 13
866 582 S 214 0.0402703 S 3 1 6
156 640 S 219 0.0479887 S 2 1 11
866 642 S 214 0.0402703 S 2 1 8
866 687 S 214 0.0402703 S 2 1 9
151 691 A 210 0.00962652 S 4 2 5
466 702 S 266 0.0248828 S 2 2 9
290 777 A 259 0.0128979 A 1 1 10
290 841 A 259 0.0128979 S 6 1 12
151 866 A 210 0.00962652 S 3 1 6
38 869 S 221 0.0132872 S 3 2 5
866 874 S 214 0.0402703 S 5 1 6
777 908 A 261 0.00241878 S 5 2 7
466 958 S 266 0.0248828 S 4 2 10
1518 1067 A 238 0.0151504 A 7 2 5
1214 1204 S 242 0.0047924 A 4 2 8
1518 1214 A 238 0.0151504 S 1 2 7
1518 1218 A 238 0.0151504 S 6 1 12
1543 1238 A 226 0.000950488 S 2 1 11
1543 1260 A 228 0.00337679 S 5 2 11
1518 1295 A 238 0.0151504 S 3 1 4
1518 1320 A 234 0.00799194 A 3 2 10
1518 1336 A 238 0.0151504 S 3 2 6
1359 1342 A 251 0.0646777 A 2 1 9
1214 1359 S 242 0.0047924 A 4 2 6
1518 1401 A 240 0.00084852 S 2 1 8
1518 1423 A 238 0.0151504 S 5 2 8
1518 1485 A 234 0.00799194 S 5 2 8
1518 1512 A 234 0.00799194 S 2 1 9
1543 1518 A 228 0.00337679 A 4 2 8
156 1543 S 219 0.0479887 A 3 1 5
1518 1594 A 238 0.0151504 S 2 1 12
1518 1784 A 238 0.0151504 A 6 2 7
243 1805 A 232 0.0124072 S 3 1 7
1594 1828 S 241 0.00382292 S 2 2 7
34 1870 A 232 0.00230985 S 3 2 10
