idFrom idTo symptFrom dayInfect pInfect symptTo lenExposed lenProdomal lenSymptomatic
494 1 A 56 0.0105933 S 4 2 7
151 34 S 129 0.000115256 A 6 2 11
245 38 A 121 0.0081269 S 3 2 9
265 39 A 47 0.0315071 S 2 1 9
196 46 S 52 0.0968284 S 7 1 6
106 55 S 56 0.0243259 A 4 2 7
364 70 A 53 0.0282317 S 3 1 10
364 101 A 58 0.0112012 A 7 2 6
196 106 S 52 0.0968284 S 3 1 7
364 117 A 53 0.0282317 S 3 1 4
753 151 A 126 0.00409384 S 2 2 11
866 156 A 102 0.000475437 A 1 2 11
265 196 A 47 0.0315071 S 2 2 5
494 205 A 56 0.0105933 A 5 1 10
420 245 A 116 0.00883729 A 4 1 15
196 252 S 52 0.0968284 S 5 1 8
-1 265 ? 43 0 A 1 1 14
106 272 S 56 0.0243259 S 2 1 8
1518 279 A 70 0.000929425 A 2 2 10
196 346 S 52 0.0968284 A 4 2 7
265 364 A 46 0.00222706 A 5 2 7
156 420 A 112 0.0652178 A 2 2 8
346 425 A 59 0.00560639 S 5 1 4
364 447 A 53 0.0282317 A 5 1 6
196 494 S 52 0.0968284 A 3 1 7
1238 605 A 84 0.00847188 A 3 1 10
494 626 A 56 0.0105933 S 5 2 9
447 649 A 63 0.00164069 S 5 1 9
605 687 A 95 0.00174594 S 2 1 7
245 753 A 121 0.0081269 A 3 1 7
252 779 S 59 0.00516331 S 3 1 6
605 866 A 95 0.00174594 A 3 2 9
196 871 S 52 0.0968284 A 7 2 15
205 894 A 70 0.00648151 S 3 2 6
364 939 A 53 0.0282317 S 4 1 8
245 958 A 121 0.0081269 S 4 2 11
1512 1067 A 75 0.0109067 S 6 1 8
1423 1212 A 65 0.0384359 S 4 2 6
1805 1216 A 63 0.0331468 S 8 1 9
649 1218 S 70 0.00210838 S 2 1 8
1212 1228 S 71 0.00750691 A 3 2 4
1423 1237 A 65 0.0384359 S 3 1 4
1260 1238 S 75 0.00388619 A 2 1 7
1784 1260 A 71 0.0328553 S 2 2 9
1805 1295 A 63 0.0331468 S 3 2 11
1784 1320 A 71 0.0328553 S 3 1 5
1512 1339 A 76 0.00167523 A 6 2 9
1805 1412 A 63 0.0331468 S 4 2 6
1805 1423 A 63 0.0331468 A 1 1 8
1805 1512 A 63 0.0331468 A 4 2 9
1423 1518 A 65 0.0384359 A 2 2 9
1518 1543 A 71 0.00305873 S 7 2 9
1423 1784 A 65 0.0384359 A 5 1 11
272 1805 S 59 0.0084447 A 3 2 10
1805 1828 A 63 0.0331468 S 6 2 8
34 1870 A 140 0.00531763 A 3 1 5
1870 1894 A 149 0.00658781 S 1 2 8
