idFrom idTo symptFrom dayInfect pInfect symptTo lenExposed lenProdomal lenSymptomatic
-1 3 ? 96 0 A 6 1 4
327 28 A 114 0.00777549 S 2 1 10
884 61 A 115 0.012571 S 4 1 10
954 65 S 126 0.018508 S 3 2 12
177 72 A 133 0.00205842 S 3 2 7
927 111 S 138 0.0101217 S 2 2 4
3 147 A 104 0.0206315 S 2 2 7
464 160 A 127 0.00566939 S 1 1 6
637 177 S 123 0.00825748 A 3 1 12
545 202 A 133 0.00181569 S 3 1 11
884 226 A 115 0.012571 S 1 1 6
884 257 A 114 0.0170323 S 2 1 10
884 268 A 114 0.0170323 S 7 2 12
327 295 A 114 0.00777549 A 3 2 7
3 327 A 107 0.00755533 A 1 1 8
884 339 A 112 0.012484 S 4 1 8
327 372 A 114 0.00777549 S 5 2 9
945 400 A 134 0.00128648 S 6 1 9
884 407 A 112 0.012484 S 4 2 9
327 429 A 114 0.00777549 S 5 1 8
61 464 S 121 0.00243674 A 4 1 9
954 487 S 126 0.018508 S 6 2 7
954 545 S 126 0.018508 A 3 1 9
884 637 A 115 0.012571 S 5 2 8
487 725 S 133 0.00132746 A 3 2 10
884 763 A 114 0.0170323 S 2 1 9
3 884 A 104 0.0206315 A 4 2 8
487 927 S 133 0.00132746 S 4 1 12
954 945 S 126 0.018508 A 1 2 7
407 954 S 119 0.00775271 S 4 2 7
954 984 S 126 0.018508 A 3 2 14
