idFrom idTo symptFrom dayInfect pInfect symptTo lenExposed lenProdomal lenSymptomatic
-1 3 ? 101 0 A 3 1 4
871 39 S 127 0.000549695 S 2 2 9
268 46 A 142 0.00343317 A 3 2 8
866 54 A 160 0.0129817 S 6 1 6
252 55 S 139 0.113467 S 6 2 6
504 61 A 133 0.0180178 A 4 1 6
122 70 A 121 0.0200581 A 2 2 8
240 101 S 130 0.0408818 S 5 2 9
272 106 A 147 0.00477907 S 1 2 8
364 117 S 144 0.0288152 A 5 2 9
122 119 A 121 0.0200581 S 6 2 7
884 122 A 112 0.0247476 A 4 2 5
70 132 A 125 0.00523855 S 4 1 4
3 147 A 105 0.00282491 S 8 1 7
866 151 A 161 0.00211076 A 3 1 6
1383 156 S 151 0.0473583 A 3 2 7
640 159 S 164 0.00229991 A 3 2 5
226 160 S 138 0.0562997 A 1 1 4
55 170 S 147 0.0322575 S 10 2 6
544 184 A 154 0.00843347 S 4 1 5
252 196 S 139 0.113467 S 1 1 3
642 220 S 165 0.0597903 A 4 2 13
504 226 A 135 0.0172784 S 2 1 8
447 240 A 124 0.00532445 S 5 2 11
265 252 A 136 0.00798121 S 2 1 4
122 255 A 120 0.000689433 A 4 2 12
504 257 A 127 0.00133549 A 4 2 10
39 265 S 130 0.00189428 A 2 2 8
504 268 A 133 0.0180178 A 3 1 12
252 272 S 139 0.113467 A 1 2 7
255 275 A 135 0.00277644 S 2 2 9
1543 279 S 139 0.00569147 A 1 1 7
275 312 S 138 0.0462793 A 6 2 8
884 339 A 112 0.0247476 A 4 2 7
884 353 A 112 0.0247476 A 3 1 10
252 364 S 139 0.113467 S 3 2 7
1359 376 A 147 0.00769368 S 3 1 4
101 425 S 137 0.00414141 A 2 1 10
504 441 A 133 0.0180178 A 4 1 5
1238 446 S 134 0.0243768 S 3 2 10
122 447 A 121 0.0200581 A 1 1 6
869 502 A 175 0.00951188 A 3 2 15
353 504 A 123 0.000718299 A 3 2 9
279 510 A 142 0.00328235 A 6 2 10
272 544 A 147 0.00477907 A 4 1 9
779 587 S 152 0.00979385 S 4 2 15
1218 605 S 142 0.00332096 S 2 2 9
275 612 S 138 0.0462793 A 2 1 7
240 626 S 130 0.0408818 S 2 2 6
156 640 A 156 0.00200357 S 5 2 8
866 642 A 160 0.0129817 S 3 2 11
122 653 A 121 0.0200581 S 2 1 7
866 658 A 162 0.000600072 A 3 2 10
869 691 A 175 0.00951188 S 2 1 5
156 694 A 155 0.0134614 S 2 1 6
1518 702 A 149 0.0102386 S 2 2 6
122 778 A 121 0.0200581 S 1 2 5
55 779 S 147 0.0322575 S 2 2 7
156 866 A 155 0.0134614 A 4 2 6
642 869 S 165 0.0597903 A 4 2 4
122 871 A 121 0.0200581 S 4 1 4
159 874 A 169 0.0172285 S 5 1 10
122 883 A 121 0.0200581 A 4 2 5
3 884 A 105 0.00282491 A 4 2 8
275 886 S 138 0.0462793 S 7 2 10
170 894 S 160 0.02206 A 5 1 7
364 939 S 144 0.0288152 S 3 1 6
279 1067 A 142 0.00328235 A 8 2 6
1518 1201 A 149 0.0102386 S 3 1 9
1518 1212 A 156 0.0188515 S 6 2 9
1359 1214 A 153 0.0120556 A 3 1 7
1324 1218 S 138 0.00229459 S 2 2 7
1401 1228 S 162 0.00134723 S 1 1 6
1423 1237 A 158 0.00118865 S 6 2 6
132 1238 S 131 0.0583202 S 1 2 5
1238 1260 S 134 0.0243768 A 5 1 8
1518 1320 A 151 0.0251724 S 3 2 3
1238 1324 S 134 0.0243768 S 3 2 7
1518 1332 A 156 0.0188515 S 3 2 10
1067 1336 A 156 0.00610606 S 2 1 13
1218 1359 S 143 0.0075312 A 3 1 8
1359 1383 A 147 0.00769368 S 3 1 9
1320 1401 S 155 0.00638171 S 6 2 8
1518 1423 A 149 0.0102386 A 2 1 6
1218 1512 S 141 0.00919373 S 2 2 8
1218 1518 S 141 0.00919373 A 4 1 12
1238 1543 S 134 0.0243768 S 4 1 3
1260 1784 A 141 0.00696093 A 7 2 7
1359 1805 A 155 0.00397687 S 4 2 7
