idFrom idTo symptFrom dayInfect pInfect symptTo lenExposed lenProdomal lenSymptomatic
-1 3 ? 109 0 S 2 2 10
147 28 A 127 0.00684454 S 5 2 5
3 147 S 114 0.0507481 A 2 1 10
3 184 S 114 0.0507481 A 9 2 6
763 295 S 123 0.0180288 A 7 1 8
3 339 S 114 0.0507481 S 5 1 8
945 400 S 133 0.00700625 A 2 1 3
147 407 A 127 0.00684454 S 1 2 8
3 477 S 114 0.0507481 A 4 2 6
407 504 S 129 0.00709281 A 3 1 9
3 653 S 114 0.0507481 S 3 2 9
3 763 S 114 0.0507481 S 8 1 7
3 884 S 114 0.0507481 S 4 2 9
407 945 S 129 0.00709281 S 3 1 13
945 954 S 133 0.00700625 S 3 2 5
