idFrom idTo symptFrom dayInfect pInfect symptTo lenExposed lenProdomal lenSymptomatic
-1 3 ? 153 0 S 1 1 10
720 27 S 168 0.0113461 S 3 2 10
147 28 A 165 0.0159574 A 4 2 9
871 39 A 178 0.00542611 S 6 1 11
226 61 S 175 0.0023931 A 4 2 6
407 65 A 174 0.014407 A 6 2 10
447 70 S 184 0.0747801 S 3 1 5
240 101 A 191 0.00938625 A 3 1 8
778 106 A 191 0.0157916 S 2 1 8
240 117 A 192 0.0242514 A 4 2 4
447 119 S 184 0.0747801 A 10 2 7
447 122 S 184 0.0747801 S 5 1 10
447 132 S 184 0.0747801 A 4 1 9
3 147 S 155 0.000271453 A 2 2 7
544 160 S 181 0.0202424 S 3 2 8
28 171 A 177 0.000543178 A 6 2 7
147 184 A 165 0.0159574 A 4 2 4
101 196 A 198 0.00797562 S 5 1 5
275 199 A 193 0.00722707 S 2 2 7
240 205 A 191 0.00938625 A 3 2 7
147 226 A 165 0.0159574 S 7 2 6
447 240 S 183 0.00297594 A 4 2 7
871 252 A 178 0.00542611 S 4 1 5
447 255 S 184 0.0747801 A 3 1 5
871 265 A 178 0.00542611 S 1 2 12
778 272 A 191 0.0157916 A 4 2 7
447 275 S 184 0.0747801 A 6 1 7
275 312 A 193 0.00722707 S 3 2 8
28 327 A 180 0.00259635 S 2 2 3
147 353 A 165 0.0159574 S 5 1 8
240 364 A 191 0.00938625 S 4 2 9
147 407 A 165 0.0159574 A 2 2 5
122 425 S 190 0.0300335 S 5 1 5
441 429 A 191 0.00140287 A 2 1 6
447 441 S 183 0.00297594 A 5 1 5
871 447 A 178 0.00542611 S 3 2 7
61 464 A 186 0.00498463 S 2 2 5
122 494 S 190 0.0300335 S 5 1 5
65 531 A 183 0.000820862 S 6 1 9
184 544 A 174 0.00166235 S 6 2 8
122 545 S 190 0.0300335 S 10 2 4
275 612 A 193 0.00722707 A 6 2 10
122 626 S 190 0.0300335 A 3 1 12
447 649 S 184 0.0747801 S 7 2 10
147 720 A 165 0.0159574 S 2 2 11
327 763 S 184 0.0108627 A 4 1 4
61 778 A 186 0.00498463 A 2 2 10
65 809 A 183 0.000820862 A 4 1 9
720 871 S 168 0.0113461 A 4 2 7
763 884 A 191 0.00310484 S 3 2 7
612 886 A 207 0.00280892 S 1 1 12
240 939 A 191 0.00938625 S 3 2 6
