idFrom idTo symptFrom dayInfect pInfect symptTo lenExposed lenProdomal lenSymptomatic
-1 3 ? 179 0 A 4 2 7
226 28 A 189 0.00170028 S 5 1 8
489 145 A 219 0.0114568 S 1 1 7
3 147 A 184 0.00203812 S 2 1 7
226 160 A 190 0.00171203 S 6 1 5
400 177 A 227 0.00037071 A 3 2 10
3 184 A 184 0.00203812 S 2 2 8
3 226 A 185 0.00609402 A 1 2 12
3 257 A 185 0.00609402 A 4 2 7
884 268 A 199 0.0171331 S 6 1 5
884 272 A 204 0.0114946 S 4 1 9
3 339 A 185 0.00609402 A 2 2 5
226 353 A 189 0.00170028 S 3 1 7
489 400 A 219 0.0114568 A 6 1 9
884 428 A 199 0.0171331 A 2 2 10
428 489 A 202 0.0152753 A 5 1 12
226 504 A 191 0.00930431 A 6 2 6
177 531 A 231 0.00208724 A 6 1 10
884 637 A 199 0.0171331 S 7 1 7
3 884 A 184 0.00203812 A 6 1 13
400 945 A 234 0.00535218 S 4 1 5
400 984 A 234 0.00535218 S 2 1 10
