idFrom idTo symptFrom dayInfect pInfect symptTo lenExposed lenProdomal lenSymptomatic
720 27 A 155 0.0022355 A 4 2 6
27 28 A 161 0.0689654 S 1 1 5
265 39 S 183 0.00297931 A 7 2 9
199 63 A 165 0.00375071 S 2 1 5
531 65 S 120 0.0260815 A 3 1 12
101 70 A 162 0.0105165 S 4 1 14
991 72 S 136 0.043084 S 3 1 6
196 101 S 156 0.0202937 A 3 2 10
487 111 A 141 0.0186879 S 5 2 5
196 117 S 156 0.0202937 S 6 2 20
70 119 S 168 0.0583851 A 3 1 9
374 122 S 141 0.00242282 S 3 1 7
487 124 A 135 0.0215449 S 1 2 6
70 132 S 168 0.0583851 A 5 2 7
65 147 A 134 0.00106186 S 4 2 6
27 171 A 165 0.0060294 A 6 2 10
27 173 A 161 0.0689654 S 3 1 7
531 177 S 120 0.0260815 S 4 2 8
27 179 A 161 0.0689654 A 2 2 7
312 184 A 165 0.000345276 S 3 1 4
346 196 A 149 0.00198095 S 5 1 7
275 199 A 158 0.01531 A 5 2 16
177 202 S 125 0.0662714 A 3 1 6
101 240 A 162 0.0105165 S 4 2 6
122 255 S 145 0.00079449 S 2 1 9
199 265 A 178 0.00808598 S 4 1 8
407 268 S 145 0.0477635 S 6 1 13
196 272 S 156 0.0202937 S 3 1 10
255 275 S 148 0.00221086 A 3 2 5
27 295 A 161 0.0689654 S 4 1 8
275 312 A 158 0.01531 A 6 2 5
374 346 S 141 0.00242282 A 2 1 10
196 364 S 156 0.0202937 S 2 1 8
65 374 A 134 0.00106186 S 5 1 5
177 400 S 125 0.0662714 S 3 2 9
72 407 S 141 0.0587677 S 3 2 10
275 425 A 154 0.00465847 S 3 1 9
447 441 A 176 0.0107303 S 2 2 7
240 447 S 167 0.0409649 A 4 1 5
27 477 A 161 0.0689654 S 3 1 10
177 487 S 126 0.00859625 A 7 2 6
265 494 S 183 0.00297931 S 3 2 15
70 527 S 168 0.0583851 S 5 2 7
-1 531 ? 115 0 S 2 2 13
177 545 S 126 0.00859625 A 5 2 9
312 612 A 168 0.0171798 S 3 1 6
199 626 A 178 0.00808598 S 8 2 2
72 627 S 141 0.0587677 S 3 1 5
177 637 S 126 0.00859625 A 2 2 7
199 649 A 173 0.0162466 S 4 1 5
202 653 A 130 0.0116274 A 3 2 6
177 674 S 125 0.0662714 A 3 1 11
531 677 S 120 0.0260815 S 3 1 9
407 720 S 145 0.0477635 A 4 1 6
939 778 S 172 0.00311093 A 1 1 9
677 809 S 125 0.0686925 A 4 2 6
487 859 A 135 0.0215449 A 3 2 7
39 871 A 192 0.00685367 S 7 2 10
177 884 S 125 0.0662714 S 4 1 11
487 927 A 135 0.0215449 A 3 1 9
240 939 S 167 0.0409649 S 2 2 9
177 945 S 125 0.0662714 S 4 1 3
177 954 S 125 0.0662714 S 3 1 7
487 970 A 141 0.0186879 S 5 1 7
177 984 S 125 0.0662714 A 6 1 5
65 991 A 133 0.000354648 S 2 2 9
