idFrom idTo symptFrom dayInfect pInfect symptTo lenExposed lenProdomal lenSymptomatic
642 38 A 128 0.0238171 S 3 2 7
219 41 S 136 0.0380676 A 3 2 8
151 54 S 134 0.0197065 A 1 1 7
642 151 A 128 0.0238171 S 3 2 9
866 156 S 119 0.0145901 A 5 2 11
642 159 A 128 0.0238171 S 3 2 4
642 219 A 129 0.00941629 S 6 1 8
151 243 S 134 0.0197065 S 2 1 6
691 245 A 157 0.00422466 S 3 2 11
638 376 A 137 0.0218624 A 1 2 6
658 387 S 142 0.0364287 A 3 2 7
245 420 S 161 0.00917012 A 2 2 9
638 435 A 144 0.0108852 A 3 2 12
642 454 A 129 0.00941629 S 2 2 7
658 502 S 142 0.0364287 A 2 2 9
638 513 A 137 0.0218624 S 3 1 7
642 525 A 128 0.0238171 A 1 2 5
582 576 S 127 0.0190154 A 4 1 9
866 582 S 119 0.0145901 S 6 2 8
-1 605 ? 106 0 S 5 2 6
658 615 S 142 0.0364287 S 7 2 5
41 634 A 140 0.0120647 S 5 1 10
1543 638 A 128 0.0014695 A 3 2 15
454 640 S 132 0.0115011 A 7 1 8
866 642 S 119 0.0145901 A 4 2 7
638 655 A 137 0.0218624 S 3 2 9
219 658 S 136 0.0380676 S 5 2 10
634 691 S 147 0.01761 A 2 2 6
582 694 S 127 0.0190154 A 4 1 7
634 753 S 147 0.01761 S 2 2 9
605 866 S 112 0.00918667 S 6 1 10
634 869 S 147 0.01761 A 2 2 8
866 874 S 119 0.0145901 S 4 2 10
41 938 A 149 0.00202841 S 5 2 6
1518 1067 S 135 0.0220658 A 4 1 4
1359 1201 A 139 0.00122993 S 7 2 3
1359 1204 A 139 0.00122993 S 5 1 10
1518 1212 S 135 0.0220658 A 4 1 8
1359 1216 A 133 0.00105594 A 3 2 7
605 1218 S 112 0.00918667 A 2 2 6
1324 1237 A 135 0.0113902 S 3 2 13
605 1238 S 112 0.00918667 A 3 2 4
1238 1260 A 120 0.001509 S 3 1 8
1518 1320 S 135 0.0220658 S 3 1 7
1218 1324 A 121 0.00552088 A 7 2 8
1543 1359 A 127 0.0177059 A 3 1 10
1359 1383 A 133 0.00105594 A 2 1 6
1518 1412 S 135 0.0220658 S 2 2 12
1518 1423 S 135 0.0220658 S 3 1 6
1324 1485 A 135 0.0113902 A 3 2 8
1218 1512 A 121 0.00552088 S 1 1 11
1543 1518 A 127 0.0177059 S 6 1 9
1238 1543 A 120 0.001509 A 4 1 11
1518 1784 S 135 0.0220658 A 2 2 7
1518 1805 S 135 0.0220658 S 4 2 6
1485 1828 A 139 0.0202578 S 8 2 6
