idFrom idTo symptFrom dayInfect pInfect symptTo lenExposed lenProdomal lenSymptomatic
-1 61 ? 257 0 S 3 2 9
268 106 A 269 0.00580653 A 1 2 8
226 160 S 269 0.00408876 S 1 2 9
160 184 S 272 0.0279457 A 3 1 7
61 226 S 262 0.00183437 S 4 2 8
61 268 S 262 0.00183437 A 2 1 8
106 272 A 274 0.000596481 A 3 1 9
226 339 S 269 0.00408876 S 1 2 8
226 353 S 269 0.00408876 S 6 2 5
184 372 A 280 0.00508126 A 2 2 9
61 464 S 261 0.000715997 S 4 1 5
372 477 A 286 0.0238513 S 3 1 8
268 884 A 269 0.00580653 S 5 1 5
