idFrom idTo symptFrom dayInfect pInfect symptTo lenExposed lenProdomal lenSymptomatic
658 38 S 291 0.0409902 A 2 2 8
658 41 S 291 0.0409902 A 4 2 7
869 54 A 280 0.0453619 S 4 2 14
1359 132 S 325 0.0599531 S 3 2 8
866 151 S 290 0.00388381 A 4 2 7
866 159 S 290 0.00388381 S 8 1 9
658 243 S 291 0.0409902 A 7 2 8
869 245 A 280 0.0453619 S 8 2 9
638 279 A 317 0.00683969 S 2 2 9
452 333 A 293 0.00788477 A 4 2 10
387 366 A 299 0.0491105 S 5 1 13
658 387 S 291 0.0409902 A 7 2 8
1518 420 A 312 0.00502416 S 2 2 12
452 424 A 296 0.0025928 S 2 1 9
691 452 A 289 0.0127922 A 3 1 5
387 513 A 299 0.0491105 A 5 1 6
694 525 A 323 0.00824025 A 8 1 5
245 582 S 291 0.00744812 A 6 2 9
866 605 S 289 0.001304 S 4 2 5
869 634 A 280 0.0453619 S 2 2 6
513 638 A 309 0.00119442 A 4 2 17
1342 650 A 333 0.0157901 S 3 1 6
513 655 A 310 0.00257534 S 3 1 13
634 658 S 284 0.00574344 S 5 1 6
41 687 A 303 0.00402452 S 4 1 6
869 691 A 280 0.0453619 A 3 1 5
638 694 A 317 0.00683969 A 2 2 6
866 753 S 289 0.001304 S 2 1 9
54 866 S 285 0.0164854 S 3 1 5
-1 869 ? 275 0 A 2 2 7
333 893 A 298 0.00341934 S 3 2 6
387 908 A 301 0.00844728 S 6 2 7
1237 1067 A 300 0.0319196 S 1 2 10
1518 1201 A 312 0.00502416 A 3 1 7
1359 1204 S 325 0.0599531 A 2 2 12
1336 1212 S 294 0.0867432 S 4 1 7
1359 1214 S 325 0.0599531 S 4 1 8
1342 1216 A 330 0.0233686 A 4 1 5
1342 1218 A 332 0.0156896 S 2 1 11
634 1228 S 284 0.00574344 S 7 1 8
1336 1237 S 294 0.0867432 A 3 2 7
1518 1320 A 310 0.00154618 S 3 1 11
1201 1324 A 319 0.000354059 S 3 1 8
869 1332 A 280 0.0453619 S 4 2 11
245 1336 S 291 0.00744812 S 2 1 5
1359 1342 S 324 0.00915045 A 3 1 8
1201 1359 A 317 0.00305715 S 5 2 5
1204 1366 A 337 0.00331008 S 4 2 8
1359 1383 S 324 0.00915045 A 3 1 9
1237 1423 A 300 0.0319196 A 3 2 8
1423 1518 A 304 0.0255942 A 5 1 7
1518 1543 A 312 0.00502416 S 1 1 16
1819 1594 A 315 0.00526052 A 2 1 8
1359 1805 S 325 0.0599531 A 5 2 7
1423 1819 A 312 0.00625636 A 2 2 5
