idFrom idTo symptFrom dayInfect pInfect symptTo lenExposed lenProdomal lenSymptomatic
-1 4 ? 248 0 S 4 2 8
634 41 A 280 0.00292077 S 2 1 7
4 90 S 254 0.00867215 A 5 1 11
4 241 S 254 0.00867215 S 4 2 13
90 325 A 262 0.00383271 S 2 2 5
90 333 A 271 0.00391985 A 2 2 8
4 424 S 254 0.00867215 S 4 2 8
4 452 S 254 0.00867215 A 4 2 12
1332 634 S 273 0.00293287 A 4 1 5
634 658 A 280 0.00292077 A 4 1 5
634 691 A 280 0.00292077 A 3 2 7
691 869 A 289 0.00338565 S 2 2 8
333 893 A 274 0.014285 S 5 2 11
452 1332 A 266 0.0170864 S 5 2 4
1332 1401 S 273 0.00293287 A 5 2 4
1401 1412 A 281 0.00724655 A 4 2 11
1805 1512 A 292 0.0165655 A 6 1 6
1512 1518 A 301 0.000388901 S 3 1 10
1401 1805 A 281 0.00724655 A 6 1 8
1401 1819 A 281 0.00724655 S 3 2 10
