idFrom idTo symptFrom dayInfect pInfect symptTo lenExposed lenProdomal lenSymptomatic
513 20 A 187 0.0082927 A 6 2 16
151 34 S 176 0.0155212 S 4 2 7
34 38 S 183 0.0313042 S 4 2 10
866 41 A 184 0.0572666 S 1 2 9
1260 54 A 164 0.0248145 A 3 2 6
1512 106 A 154 0.0169052 S 3 1 7
54 151 A 169 0.00169285 S 5 1 11
866 156 A 184 0.0572666 S 3 1 11
866 159 A 184 0.0572666 A 6 2 7
866 220 A 184 0.0572666 S 2 1 8
502 243 S 188 0.0268577 S 4 1 7
958 245 A 227 0.0208691 S 2 1 7
20 277 A 211 0.0155671 A 3 2 8
1345 435 A 177 0.0262289 S 3 1 7
866 502 A 184 0.0572666 S 3 1 10
151 513 S 176 0.0155212 A 10 2 14
866 525 A 184 0.0572666 S 2 2 8
866 605 A 184 0.0572666 S 3 1 6
41 634 S 188 0.0218467 S 4 2 11
1543 638 S 155 0.0176487 S 3 1 9
866 640 A 184 0.0572666 S 5 1 6
151 642 S 176 0.0155212 A 5 1 7
513 655 A 187 0.0082927 A 5 2 11
502 691 S 188 0.0268577 S 5 2 9
866 694 A 184 0.0572666 S 4 2 13
20 841 A 211 0.0155671 A 2 1 7
151 866 S 176 0.0155212 A 3 2 12
159 869 A 191 0.00519214 A 1 2 9
841 958 A 220 0.000635504 A 4 2 7
1324 1067 A 154 0.00476792 S 6 2 7
1359 1201 S 151 0.00307667 S 5 2 7
-1 1204 ? 138 0 A 3 1 6
1359 1212 S 151 0.00307667 S 2 1 7
1359 1214 S 151 0.00307667 S 7 2 4
1324 1218 A 156 0.00142354 S 5 1 11
1345 1228 A 177 0.0262289 S 3 2 7
1543 1238 S 155 0.0176487 A 4 1 14
1543 1260 S 155 0.0176487 A 4 1 7
1512 1295 A 154 0.0169052 S 5 2 9
1238 1320 A 168 0.00393347 A 2 1 8
1518 1324 S 149 0.00654584 A 4 2 10
1828 1332 A 185 0.00612018 A 3 2 8
1512 1339 A 164 0.000457986 A 4 2 8
1204 1342 A 144 0.00239777 S 3 1 9
1594 1345 A 175 0.0129087 A 1 2 9
1204 1359 A 146 0.0200259 S 4 2 17
1204 1383 A 144 0.00239777 S 3 2 6
1518 1423 S 149 0.00654584 S 3 1 6
1518 1512 S 149 0.00654584 A 4 1 12
1204 1518 A 144 0.00239777 S 2 2 8
1345 1519 A 177 0.0262289 S 8 1 13
1518 1543 S 149 0.00654584 S 4 1 10
1324 1594 A 165 0.00237099 A 2 1 10
1512 1805 A 154 0.0169052 S 1 1 6
1332 1819 A 193 0.00400301 S 4 2 6
1594 1828 A 170 0.00802969 A 5 2 8
34 1870 S 183 0.0313042 A 3 1 7
