idFrom idTo symptFrom dayInfect pInfect symptTo lenExposed lenProdomal lenSymptomatic
-1 9 ? 27 0 A 2 2 5
200 21 A 38 0.00515806 A 6 2 6
9 48 A 36 0.00369492 S 3 2 12
200 71 A 38 0.00515806 A 3 2 10
9 79 A 36 0.00369492 S 1 1 12
601 89 A 42 0.00632762 S 6 1 6
453 134 A 42 0.00765336 S 5 2 4
9 200 A 30 0.000839957 A 3 2 3
826 232 S 40 0.00921231 S 2 2 6
601 322 A 45 0.000114562 S 6 2 9
200 413 A 38 0.00515806 S 3 1 7
9 453 A 36 0.00369492 A 4 1 6
9 496 A 36 0.00369492 S 3 2 7
9 601 A 36 0.00369492 A 2 1 9
71 791 A 45 0.00301651 S 2 2 8
200 826 A 36 0.0046598 S 3 1 7
