idFrom idTo symptFrom dayInfect pInfect symptTo lenExposed lenProdomal lenSymptomatic
-1 4 ? 277 0 A 1 1 10
4 5 A 280 0.00283393 A 2 2 9
4 90 A 282 0.00198489 S 3 2 7
4 101 A 280 0.00283393 A 1 2 7
4 111 A 285 0.0111094 S 5 1 11
4 191 A 283 0.00262564 S 1 2 7
