idFrom idTo symptFrom dayInfect pInfect symptTo lenExposed lenProdomal lenSymptomatic
208 44 S 34 0.0412277 A 4 1 5
-1 51 ? 26 0 A 3 2 8
208 184 S 34 0.0412277 S 2 1 9
51 208 A 30 0.00709426 S 2 1 12
208 266 S 34 0.0412277 S 5 2 11
51 305 A 30 0.00709426 S 4 1 6
