idFrom idTo symptFrom dayInfect pInfect symptTo lenExposed lenProdomal lenSymptomatic
142 8 A 162 0.030889 A 2 1 9
43 26 S 171 0.0011651 S 4 2 5
246 43 S 166 0.0107613 S 3 2 9
8 77 A 171 0.00124608 S 5 2 13
142 78 A 168 0.00574369 A 3 2 5
142 108 A 168 0.00574369 A 2 2 6
8 124 A 168 0.00570897 S 6 2 9
-1 142 ? 155 0 A 5 2 6
8 149 A 168 0.00570897 A 1 1 11
78 201 A 172 0.00102589 S 5 1 6
142 206 A 168 0.00574369 S 3 1 8
8 220 A 169 0.00120178 S 3 1 6
142 246 A 162 0.030889 S 3 1 5
142 258 A 162 0.030889 A 8 2 5
