idFrom idTo symptFrom dayInfect pInfect symptTo lenExposed lenProdomal lenSymptomatic
201 13 A 168 0.00730595 S 4 1 7
201 55 A 175 0.00145597 S 4 2 10
201 105 A 168 0.00730595 A 3 1 10
13 156 S 174 0.0260586 S 4 2 9
-1 201 ? 162 0 A 3 1 14
156 251 S 179 0.00517665 S 3 2 9
