idFrom idTo symptFrom dayInfect pInfect symptTo lenExposed lenProdomal lenSymptomatic
-1 1 ? 63 0 A 6 2 9
1 6 A 78 0.0109278 A 3 1 5
1 10 A 78 0.0109278 A 5 2 6
1 73 A 73 0.0121868 A 3 1 10
1 170 A 73 0.0121868 S 4 2 10
6 181 A 85 8.98211e-05 S 4 2 7
1 302 A 73 0.0121868 S 8 1 7
