idFrom idTo symptFrom dayInfect pInfect symptTo lenExposed lenProdomal lenSymptomatic
-1 4 ? 101 0 A 3 2 7
76 22 A 124 0.0157017 S 5 1 5
103 76 S 117 0.0012875 A 5 2 3
4 103 A 112 0.00214696 S 2 2 4
76 123 A 124 0.0157017 S 3 2 5
76 153 A 124 0.0157017 S 3 2 9
4 191 A 112 0.00214696 S 1 2 4
4 193 A 112 0.00214696 S 5 2 8
76 203 A 124 0.0157017 S 5 2 4
