idFrom idTo symptFrom dayInfect pInfect symptTo lenExposed lenProdomal lenSymptomatic
44 1 A 235 0.0249896 A 4 2 6
184 2 S 208 0.0195572 A 4 2 5
59 3 A 229 0.00546219 A 5 2 11
-1 4 ? 180 0 S 2 2 9
130 5 A 220 0.00658462 A 4 2 3
167 8 A 204 0.0130897 A 1 2 6
19 12 A 204 0.00864892 S 3 2 11
89 13 A 225 0.000100105 S 1 2 8
160 16 S 217 0.0240968 A 5 1 15
313 19 S 191 0.0198073 A 5 2 7
37 20 S 224 0.0145464 A 2 1 6
238 22 S 240 0.00948371 A 3 2 10
220 23 A 238 0.0295627 S 3 1 8
96 26 S 224 0.00959625 S 2 1 11
61 33 S 218 0.0148169 A 3 2 8
49 36 A 200 0.00561049 S 4 1 9
158 37 S 220 0.015269 S 2 2 6
227 39 S 233 0.0124765 S 6 1 8
313 40 S 191 0.0198073 S 1 2 3
69 42 A 218 0.0216243 S 3 1 5
26 44 S 228 0.00436205 A 3 1 5
313 45 S 191 0.0198073 A 8 2 9
4 46 S 185 0.0142166 A 8 1 4
209 49 A 195 0.016479 A 3 2 6
69 50 A 218 0.0216243 S 3 2 8
40 51 S 193 0.0231856 A 4 1 6
119 53 A 220 0.000686364 S 6 1 9
124 56 A 210 0.0174405 S 3 1 6
235 57 A 242 0.0125729 A 3 1 6
124 58 A 211 0.00126295 A 4 2 16
158 59 S 220 0.015269 A 4 2 10
8 61 A 213 0.0326147 S 3 2 3
119 63 A 219 0.00516249 S 4 2 11
309 64 A 226 0.00426073 S 2 1 6
8 67 A 213 0.0326147 A 6 1 6
306 69 S 211 0.0224586 A 2 1 6
58 70 A 228 0.00352861 S 4 2 8
220 72 A 238 0.0295627 A 1 1 5
306 73 S 211 0.0224586 S 3 1 10
8 77 A 213 0.0326147 A 3 1 6
103 79 A 199 0.00100491 A 2 2 8
77 80 A 217 0.00148082 S 4 2 6
176 81 A 239 0.0335176 A 6 1 5
145 82 A 241 7.07121e-05 A 3 1 6
204 83 A 278 0.0102044 A 4 2 6
233 86 S 224 0.00565199 A 3 1 7
8 89 A 213 0.0326147 A 3 2 9
44 91 A 235 0.0249896 S 5 1 8
220 93 A 238 0.0295627 S 5 1 10
37 95 S 224 0.0145464 S 5 1 8
158 96 S 220 0.015269 S 2 1 10
49 97 A 200 0.00561049 S 2 2 11
158 98 S 220 0.015269 S 2 1 8
176 99 A 239 0.0335176 S 3 1 8
149 100 S 217 0.0105333 A 4 1 11
4 101 S 185 0.0142166 S 3 2 11
247 102 A 254 7.86998e-05 S 4 2 8
4 103 S 185 0.0142166 A 4 2 9
227 104 S 233 0.0124765 S 4 1 5
319 108 S 203 0.00474791 S 3 1 7
145 110 A 243 0.0144047 S 2 2 11
4 111 S 185 0.0142166 S 7 2 8
4 112 S 185 0.0142166 S 3 1 9
58 113 A 233 0.00156894 S 4 2 3
136 115 S 252 0.0014352 S 5 1 9
167 117 A 204 0.0130897 S 2 2 9
8 118 A 213 0.0326147 S 7 2 10
8 119 A 213 0.0326147 A 2 1 8
167 123 A 204 0.0130897 A 4 1 10
49 124 A 200 0.00561049 A 4 2 6
235 127 A 242 0.0125729 A 1 1 5
2 130 A 213 0.00163907 A 5 2 6
40 131 S 193 0.0231856 A 6 1 6
130 133 A 220 0.00658462 A 9 1 7
306 135 S 211 0.0224586 A 7 1 9
1 136 A 246 0.00128747 S 5 1 12
130 142 A 220 0.00658462 A 3 2 11
306 144 S 211 0.0224586 S 4 2 9
227 145 S 233 0.0124765 A 6 2 3
240 148 S 226 0.00139654 S 5 1 7
8 149 A 213 0.0326147 S 1 2 7
169 150 A 245 0.026975 S 6 2 7
37 151 S 224 0.0145464 A 2 2 10
205 153 A 236 0.00679617 A 3 1 3
4 154 S 184 0.0137794 S 5 1 11
260 157 A 238 0.0211531 A 4 1 6
8 158 A 213 0.0326147 S 5 2 8
96 159 S 223 0.0203949 S 5 1 8
8 160 A 213 0.0326147 S 2 1 8
44 163 A 235 0.0249896 S 1 1 9
177 165 A 211 0.00183864 A 3 1 10
265 167 S 197 0.0136039 A 3 2 13
222 168 A 231 0.0110322 S 6 1 9
222 169 A 235 0.00291835 A 3 1 9
167 172 A 207 0.00177584 A 3 2 8
186 173 A 248 0.000889615 A 6 1 5
227 176 S 233 0.0124765 A 3 2 9
319 177 S 203 0.00474791 A 3 2 6
283 180 S 225 0.00122266 S 5 2 13
45 184 A 204 0.00585404 S 2 1 9
227 185 S 233 0.0124765 S 2 2 9
235 186 A 242 0.0125729 A 2 2 6
220 187 A 238 0.0295627 S 1 2 6
40 190 S 193 0.0231856 S 2 1 6
16 191 A 233 0.00231908 S 6 1 5
8 195 A 213 0.0326147 S 9 2 9
58 196 A 228 0.00352861 S 6 1 4
306 200 S 211 0.0224586 A 3 1 5
100 201 A 228 0.000285383 S 2 2 10
247 203 A 253 0.000576832 S 5 2 7
277 204 A 257 0.0145109 A 5 1 18
283 205 S 225 0.00122266 A 3 2 7
89 207 A 222 0.0218123 A 3 1 3
313 209 S 191 0.0198073 A 2 1 8
157 215 A 245 0.00912598 S 1 2 4
79 216 A 204 0.00413221 S 3 2 10
176 217 A 239 0.0335176 S 5 2 9
204 219 A 269 0.00111299 S 4 2 9
16 220 A 233 0.00231908 A 2 2 8
220 221 A 238 0.0295627 S 5 1 7
5 222 A 227 0.00381585 A 3 2 5
222 226 A 231 0.0110322 S 2 1 7
33 227 A 227 0.00118802 S 4 1 8
238 228 S 240 0.00948371 S 5 2 5
203 230 S 260 0.00413608 A 3 1 4
8 232 A 213 0.0326147 S 2 1 7
69 233 A 218 0.0216243 S 4 1 7
260 235 A 238 0.0211531 A 3 2 10
83 237 A 284 0.00496214 S 3 1 5
44 238 A 235 0.0249896 S 4 1 8
130 240 A 220 0.00658462 S 3 2 10
222 241 A 231 0.0110322 S 3 1 9
3 242 A 236 0.00484743 S 4 1 8
313 243 S 191 0.0198073 A 3 2 8
169 247 A 245 0.026975 A 3 2 16
119 252 A 219 0.00516249 S 2 2 9
260 253 A 242 0.00408451 S 5 2 12
4 256 S 185 0.0142166 S 2 1 8
149 258 S 217 0.0105333 S 3 2 6
83 259 A 284 0.00496214 S 5 1 8
222 260 A 231 0.0110322 A 4 1 7
40 263 S 194 0.0132033 A 2 1 8
69 264 A 218 0.0216243 A 4 1 4
40 265 S 193 0.0231856 S 3 2 5
58 266 A 228 0.00352861 A 7 2 7
124 268 A 210 0.0174405 A 2 1 8
157 277 A 245 0.00912598 A 4 2 8
124 279 A 210 0.0174405 S 6 1 13
265 280 S 197 0.0136039 A 4 1 7
220 282 A 238 0.0295627 S 3 1 9
119 283 A 219 0.00516249 S 3 2 15
201 284 S 233 0.0013588 S 5 2 7
260 285 A 238 0.0211531 S 4 2 10
61 286 S 218 0.0148169 S 5 1 6
130 290 A 220 0.00658462 S 4 1 9
40 291 S 193 0.0231856 S 2 2 8
222 292 A 235 0.00291835 A 7 2 6
96 295 S 224 0.00959625 S 2 1 8
124 302 A 210 0.0174405 A 3 1 7
22 303 A 249 0.00195797 S 4 1 8
167 306 A 204 0.0130897 S 4 2 4
8 309 A 213 0.0326147 A 7 2 6
96 310 S 224 0.00959625 S 4 1 8
243 312 A 198 0.00352058 S 3 2 14
4 313 S 185 0.0142166 S 4 1 7
240 314 S 226 0.00139654 S 5 2 4
176 315 A 239 0.0335176 S 4 1 6
222 317 A 233 0.00147071 S 6 1 10
265 319 S 197 0.0136039 S 5 2 8
102 324 S 261 0.026551 S 4 1 8
167 327 A 207 0.00177584 S 2 2 8
