idFrom idTo symptFrom dayInfect pInfect symptTo lenExposed lenProdomal lenSymptomatic
213 1 A 257 0.00129403 S 4 1 9
-1 39 ? 241 0 A 3 1 11
39 104 A 254 0.00636978 S 1 2 7
39 155 A 249 0.00385742 A 4 1 7
39 213 A 249 0.00385742 A 3 1 5
39 287 A 249 0.00385742 S 6 1 11
