idFrom idTo symptFrom dayInfect pInfect symptTo lenExposed lenProdomal lenSymptomatic
66 5 A 274 0.00414047 A 3 2 6
27 11 A 325 0.00397468 A 1 1 8
133 12 A 303 0.000433254 S 1 2 6
239 13 S 296 0.0300331 S 7 1 7
275 15 A 277 0.0062354 S 2 2 7
169 17 S 259 0.0353867 S 7 1 6
76 22 A 299 0.0232393 A 4 2 5
15 23 S 282 0.0557497 S 3 2 10
256 25 S 302 0.00914949 A 3 2 12
292 26 A 304 0.0313619 A 5 2 9
26 27 A 318 0.00408789 A 3 2 12
27 28 A 324 0.000408119 A 4 1 7
38 29 A 349 0.00357437 S 5 1 6
81 30 A 294 0.00260744 A 3 1 7
206 33 A 300 0.00905202 A 3 1 6
60 34 A 343 0.00220459 S 3 1 10
22 35 A 305 0.00173689 A 6 2 9
182 36 A 257 0.0131366 A 3 2 15
197 37 A 262 0.0181409 S 3 1 7
247 38 A 344 0.00623127 A 2 1 7
238 39 S 299 0.0736283 A 5 2 11
81 40 A 291 0.00188245 A 3 1 10
285 41 A 270 0.00327916 S 1 2 6
15 43 S 280 0.0378431 A 2 1 4
275 44 A 284 0.00562311 A 4 2 8
15 46 S 282 0.0557497 S 3 1 11
161 47 A 276 0.00284449 S 3 2 10
60 48 A 343 0.00220459 A 4 2 11
169 49 S 259 0.0353867 S 3 1 9
241 52 A 288 0.00246774 A 4 2 2
27 60 A 333 0.00686743 A 1 1 8
92 62 S 282 0.00270987 A 4 1 7
12 65 S 307 0.00468137 A 3 2 13
269 66 S 270 0.00234228 A 1 1 6
238 68 S 298 0.00571403 A 7 1 19
318 69 A 260 0.00280314 A 3 1 12
306 70 A 285 0.00698615 A 2 2 6
96 72 S 293 0.010818 S 4 2 5
239 73 S 296 0.0300331 A 4 2 8
15 75 S 282 0.0557497 S 4 1 5
159 76 S 289 0.015005 A 3 2 7
15 77 S 282 0.0557497 S 6 2 7
285 79 A 270 0.00327916 S 2 1 12
306 81 A 283 0.000742924 A 3 1 9
161 84 A 273 0.00491477 S 4 1 8
211 85 S 291 0.00839832 A 4 2 9
68 90 A 324 0.0146843 S 2 1 5
15 92 S 280 0.0378431 S 1 1 7
197 93 A 262 0.0181409 A 6 1 9
159 96 S 288 0.0140193 S 3 2 16
250 98 S 315 0.00637357 S 7 2 5
35 103 A 321 0.00479913 A 3 1 7
15 106 S 282 0.0557497 S 5 2 9
36 107 A 273 0.0039532 S 2 2 11
231 109 A 342 0.000473422 A 4 2 11
182 110 A 254 0.0137431 S 5 2 8
68 111 A 324 0.0146843 A 3 2 6
136 113 S 289 0.0221522 S 6 1 10
159 114 S 289 0.015005 A 4 2 9
188 116 A 340 0.00157851 A 2 2 8
159 118 S 289 0.015005 S 4 1 8
238 121 S 299 0.0736283 A 5 2 10
109 124 A 358 0.00369441 S 2 2 13
44 125 A 294 0.00432709 S 4 2 9
275 126 A 277 0.0062354 A 2 2 10
77 131 S 290 0.00653883 S 4 2 5
245 133 A 297 0.0151042 A 2 2 5
275 136 A 284 0.00562311 S 4 1 5
282 138 A 288 0.00439534 S 3 2 8
263 140 A 329 0.0181277 A 4 1 10
103 143 A 329 0.00445237 S 7 2 5
227 145 S 312 0.00246623 S 3 2 7
136 146 S 289 0.0221522 S 3 1 5
245 150 A 295 0.0144533 S 4 1 8
282 152 A 285 0.00693963 S 2 1 8
212 155 A 310 0.000956444 A 4 2 10
253 157 A 300 0.00810193 S 4 1 8
126 159 A 284 0.00203667 S 3 2 9
275 160 A 285 0.00623598 S 3 2 6
49 161 S 263 0.00102094 A 2 1 10
76 162 A 299 0.0232393 S 3 1 4
44 163 A 294 0.00432709 S 3 2 10
277 165 A 263 0.00280981 S 4 2 6
182 166 A 257 0.0131366 S 6 1 8
136 167 S 289 0.0221522 S 5 2 9
182 169 A 254 0.0137431 S 3 1 10
11 170 A 329 0.00117122 S 6 2 5
15 172 S 282 0.0557497 A 3 2 5
239 175 S 295 0.00952956 S 4 1 8
200 176 A 295 0.000566653 A 5 2 8
161 180 A 276 0.00284449 S 4 1 6
-1 182 ? 247 0 A 3 2 6
182 183 A 254 0.0137431 A 4 1 12
285 184 A 270 0.00327916 S 3 1 7
211 187 S 291 0.00839832 S 1 2 5
201 188 A 336 0.0083519 A 3 1 13
30 190 A 303 0.012703 S 2 1 5
172 191 A 291 0.0021015 A 1 1 6
239 192 S 296 0.0300331 S 2 2 4
172 194 A 290 0.00673138 S 2 1 13
66 195 A 274 0.00414047 S 3 1 8
239 196 S 295 0.00952956 S 2 1 5
182 197 A 254 0.0137431 A 2 1 9
11 199 A 329 0.00117122 S 2 1 8
136 200 S 289 0.0221522 A 3 2 6
28 201 A 329 0.00493458 A 4 1 7
239 202 S 296 0.0300331 A 3 2 10
292 205 A 304 0.0313619 S 2 2 5
275 206 A 285 0.00623598 A 4 1 10
256 210 S 302 0.00914949 S 1 1 6
126 211 A 287 0.00618042 S 3 1 6
44 212 A 294 0.00432709 A 7 2 8
116 215 A 343 0.0010509 S 8 1 5
182 221 A 254 0.0137431 S 1 1 9
241 222 A 291 0.000557508 S 6 2 10
169 225 S 259 0.0353867 S 2 1 9
28 226 A 329 0.00493458 S 3 2 17
292 227 A 304 0.0313619 S 7 1 5
239 229 S 296 0.0300331 A 4 1 8
263 231 A 329 0.0181277 A 4 2 8
292 234 A 304 0.0313619 S 4 1 6
320 235 S 293 0.00760337 S 3 1 8
138 238 S 293 0.000229548 S 3 2 8
172 239 A 290 0.00673138 S 3 2 9
15 241 S 280 0.0378431 A 2 2 9
68 242 A 324 0.0146843 A 2 1 8
81 245 A 288 0.00150686 A 3 2 7
263 247 A 329 0.0181277 A 4 2 10
182 248 A 254 0.0137431 S 4 1 6
68 250 A 309 0.00813044 S 3 2 8
318 251 A 260 0.00280314 S 6 2 9
211 253 S 291 0.00839832 A 4 2 4
248 255 S 260 0.00171071 S 3 1 5
81 256 A 294 0.00260744 S 6 1 6
126 258 A 287 0.00618042 S 3 2 6
155 263 A 323 5.87345e-05 A 4 2 8
176 264 A 301 0.00120376 S 3 1 8
183 265 A 259 0.00272568 S 8 2 6
15 266 S 280 0.0378431 S 3 2 8
212 268 A 305 0.0004164 S 3 2 8
197 269 A 266 0.00201465 S 3 2 10
159 272 S 288 0.0140193 S 3 1 6
79 275 S 274 0.00498294 A 2 2 7
182 277 A 254 0.0137431 A 4 2 10
263 278 A 329 0.0181277 S 5 1 8
239 281 S 296 0.0300331 S 5 1 6
15 282 S 280 0.0378431 A 3 2 7
182 283 A 254 0.0137431 S 2 1 14
318 285 A 260 0.00280314 A 6 1 5
159 286 S 289 0.015005 S 3 1 12
245 288 A 297 0.0151042 S 4 2 16
68 289 A 309 0.00813044 A 2 1 8
250 291 S 315 0.00637357 S 4 1 11
200 292 A 295 0.000566653 A 6 1 7
93 293 A 277 0.00167931 S 5 2 5
116 294 A 343 0.0010509 A 2 1 6
111 296 A 328 0.00706481 S 4 2 9
263 297 A 329 0.0181277 S 3 1 5
197 301 A 257 0.00167529 A 3 1 7
275 306 A 277 0.0062354 A 3 1 4
68 308 A 324 0.0146843 S 6 1 7
38 315 A 352 0.000748144 S 1 2 4
169 317 S 259 0.0353867 S 6 1 6
182 318 A 253 0.00202462 A 3 2 10
65 319 A 322 0.00120813 S 3 1 9
159 320 S 288 0.0140193 S 3 2 6
169 321 S 259 0.0353867 S 3 2 11
126 325 A 287 0.00618042 A 5 2 7
109 326 A 358 0.00369441 S 6 2 5
