idFrom idTo symptFrom dayInfect pInfect symptTo lenExposed lenProdomal lenSymptomatic
-1 4 ? 95 0 S 3 2 4
83 11 A 122 0.00710952 S 2 1 11
4 13 S 99 0.0119551 S 3 1 5
68 16 S 112 0.00390177 S 2 1 11
293 33 A 150 0.00118475 A 2 2 8
83 37 A 122 0.00710952 S 4 1 3
89 41 A 112 0.00640717 A 4 2 8
83 49 A 122 0.00710952 S 6 1 9
291 62 S 126 0.00908177 S 5 2 10
183 68 A 108 0.0222307 S 2 1 6
68 83 S 112 0.00390177 A 5 1 6
13 89 S 104 0.00447194 A 2 1 10
291 95 S 125 0.0132087 S 3 2 8
191 106 A 108 0.00275338 S 4 2 11
41 109 A 125 0.00109482 S 5 2 17
183 119 A 108 0.0222307 S 4 1 5
4 123 S 99 0.0119551 S 5 2 8
278 124 A 122 0.00935733 A 3 1 7
221 140 A 144 0.00161541 S 5 2 5
183 142 A 108 0.0222307 S 1 1 9
278 151 A 122 0.00935733 S 2 1 7
4 183 S 99 0.0119551 A 7 1 10
4 191 S 99 0.0119551 A 4 1 6
4 193 S 99 0.0119551 S 2 2 9
83 204 A 122 0.00710952 S 2 2 10
83 214 A 122 0.00710952 S 3 1 11
37 221 S 128 0.0108628 A 4 2 13
278 237 A 122 0.00935733 S 2 2 7
151 247 S 125 0.00538079 S 4 1 12
191 251 A 106 0.00261535 S 3 1 4
89 278 A 111 0.00437381 A 4 2 9
83 291 A 122 0.00710952 S 1 2 8
221 293 A 147 0.00961178 A 2 2 13
221 316 A 147 0.00961178 S 3 1 10
123 323 S 107 0.00262317 S 5 2 11
