idFrom idTo symptFrom dayInfect pInfect symptTo lenExposed lenProdomal lenSymptomatic
-1 1431 ? 226 0 A 5 1 14
1431 1578 A 241 0.00199787 S 1 1 5
1824 1592 S 253 0.00885181 S 4 2 2
1431 1824 A 246 0.000845417 S 4 2 5
