idFrom idTo symptFrom dayInfect pInfect symptTo lenExposed lenProdomal lenSymptomatic
1443 1427 A 288 0.00265191 A 3 2 9
-1 1434 ? 276 0 S 2 2 10
1434 1443 S 281 0.00525886 A 3 1 5
1427 1592 A 300 0.00147131 A 1 1 8
