idFrom idTo symptFrom dayInfect pInfect symptTo lenExposed lenProdomal lenSymptomatic
-1 1439 ? 65 0 S 4 1 12
1533 1443 S 81 0.00206177 A 4 1 5
1439 1503 S 70 0.00369423 S 8 2 5
1503 1533 S 79 0.0016233 S 1 2 9
1503 1548 S 81 0.0127173 S 3 1 7
1765 1670 S 86 0.00202848 A 6 1 6
1670 1674 A 94 0.00164777 A 3 1 8
1503 1730 S 81 0.0127173 S 4 2 4
1503 1765 S 81 0.0127173 S 2 2 8
1765 1908 S 86 0.00202848 A 3 1 6
