idFrom idTo symptFrom dayInfect pInfect symptTo lenExposed lenProdomal lenSymptomatic
-1 1451 ? 35 0 A 3 2 7
1498 1459 S 52 0.00237544 S 4 2 8
1451 1468 A 40 0.00643396 A 4 1 12
1451 1498 A 46 0.00434039 S 5 1 11
1498 1520 S 52 0.00237544 S 4 2 9
1451 1637 A 46 0.00434039 S 4 1 10
