idFrom idTo symptFrom dayInfect pInfect symptTo lenExposed lenProdomal lenSymptomatic
1475 1434 S 245 0.0104601 S 5 1 9
-1 1475 ? 238 0 S 5 2 9
1434 1480 S 252 0.00133129 S 4 2 8
1480 1482 S 258 0.00253077 S 4 2 8
1434 1857 S 252 0.00133129 S 3 2 12
1857 1866 S 257 0.000983612 S 5 2 6
