idFrom idTo symptFrom dayInfect pInfect symptTo lenExposed lenProdomal lenSymptomatic
1498 1459 A 214 0.000234034 A 2 2 7
1459 1486 A 224 0.002831 A 5 1 11
-1 1498 ? 209 0 A 4 1 4
1486 1585 A 234 0.00625276 S 4 1 11
