idFrom idTo symptFrom dayInfect pInfect symptTo lenExposed lenProdomal lenSymptomatic
1502 1443 A 74 0.00172714 S 5 2 9
1501 1451 S 76 0.000856836 S 6 2 9
1502 1452 A 72 0.00233297 A 4 1 7
1502 1493 A 72 0.00233297 S 3 1 8
1502 1501 A 72 0.00233297 S 3 1 6
-1 1502 ? 63 0 A 3 2 7
1502 1520 A 72 0.00233297 S 3 2 8
