idFrom idTo symptFrom dayInfect pInfect symptTo lenExposed lenProdomal lenSymptomatic
291 1 S 97 0.00749996 S 8 2 11
-1 5 ? 78 0 A 2 1 8
244 72 A 98 0.00451673 S 3 2 7
291 98 S 98 0.00462188 S 3 1 6
244 130 A 98 0.00451673 S 2 2 4
1 173 S 108 0.0133757 S 3 2 11
1 209 S 108 0.0133757 S 2 2 7
5 244 A 86 0.00140127 A 4 2 8
98 250 S 102 4.44323e-05 A 6 1 12
5 251 A 88 4.89052e-05 S 1 2 9
130 279 S 103 0.00566727 A 10 2 8
244 291 A 92 0.00196159 S 3 2 5
72 303 S 102 0.000677467 A 2 2 7
