idFrom idTo symptFrom dayInfect pInfect symptTo lenExposed lenProdomal lenSymptomatic
-1 12 ? 269 0 S 2 1 8
12 27 S 273 0.0153189 A 3 1 6
273 129 A 280 0.00521715 A 3 2 7
273 138 A 280 0.00521715 A 3 1 7
12 273 S 273 0.0153189 A 2 2 8
