idFrom idTo symptFrom dayInfect pInfect symptTo lenExposed lenProdomal lenSymptomatic
147 15 A 28 0.013294 S 3 2 10
147 78 A 28 0.013294 A 1 1 8
-1 147 ? 20 0 A 2 2 9
78 199 A 35 0.0228272 S 7 1 9
78 228 A 35 0.0228272 S 3 2 12
78 278 A 35 0.0228272 S 2 2 6
147 314 A 28 0.013294 S 3 2 8
