idFrom idTo symptFrom dayInfect pInfect symptTo lenExposed lenProdomal lenSymptomatic
-1 2 ? 141 0 S 2 2 7
267 9 S 153 0.00453089 A 3 2 6
2 30 S 144 5.66642e-05 S 3 2 7
112 53 S 157 0.00212228 S 3 2 9
267 112 S 154 0.0196078 S 1 1 5
265 114 S 157 0.0320688 S 5 2 9
267 168 S 154 0.0196078 A 4 1 7
267 175 S 154 0.0196078 S 7 1 5
30 185 S 148 0.00669942 S 5 2 7
267 188 S 154 0.0196078 A 5 2 9
9 238 A 158 0.0090901 S 2 1 7
267 265 S 152 0.00287275 S 3 1 9
30 267 S 148 0.00669942 S 3 2 9
265 270 S 157 0.0320688 S 3 1 7
267 302 S 154 0.0196078 S 4 2 8
