idFrom idTo symptFrom dayInfect pInfect symptTo lenExposed lenProdomal lenSymptomatic
-1 2 ? 246 0 A 6 1 8
2 30 A 256 0.00418338 A 6 1 13
2 42 A 255 0.00591663 S 6 2 11
42 69 S 262 0.00443401 A 4 1 10
2 103 A 258 0.00731331 S 1 1 5
2 106 A 256 0.00418338 S 5 2 6
30 112 A 274 0.00194127 A 1 1 6
42 173 S 262 0.00443401 S 2 1 6
69 224 A 270 0.00362043 S 5 1 11
42 275 S 262 0.00443401 S 5 2 13
2 276 A 258 0.00731331 S 3 2 7
