idFrom idTo symptFrom dayInfect pInfect symptTo lenExposed lenProdomal lenSymptomatic
-1 3 ? 8 0 S 4 1 9
291 120 A 27 0.00315649 S 5 1 9
3 291 S 14 0.00167161 A 6 2 8
291 322 A 30 0.000981869 A 1 2 6
