idFrom idTo symptFrom dayInfect pInfect symptTo lenExposed lenProdomal lenSymptomatic
229 100 A 98 0.0138337 S 4 2 5
229 125 A 98 0.0138337 A 2 1 6
229 222 A 98 0.0138337 S 4 1 9
-1 229 ? 87 0 A 3 1 8
229 304 A 98 0.0138337 S 3 2 8
