idFrom idTo symptFrom dayInfect pInfect symptTo lenExposed lenProdomal lenSymptomatic
-1 3 ? 244 0 A 3 1 9
236 32 S 259 0.0221345 A 4 1 8
3 42 A 248 0.00461897 S 4 1 9
42 107 S 254 0.00435623 A 4 1 11
3 119 A 248 0.00461897 S 4 1 8
107 126 A 263 0.016653 S 4 1 10
236 149 S 259 0.0221345 S 4 2 12
3 210 A 252 0.00171563 S 3 1 9
42 236 S 254 0.00435623 S 4 2 6
