idFrom idTo symptFrom dayInfect pInfect symptTo lenExposed lenProdomal lenSymptomatic
-1 3 ? 277 0 A 6 2 8
266 32 S 290 0.00398082 A 2 1 8
275 44 A 295 0.0180295 S 3 2 11
266 53 S 291 0.0268469 S 5 2 6
184 79 S 289 0.0340356 S 4 1 10
79 91 S 294 0.0148903 A 3 2 9
79 113 S 294 0.0148903 A 2 1 13
275 114 A 296 0.00146896 A 1 2 7
266 181 S 291 0.0268469 S 4 2 5
3 184 A 286 0.00554571 S 2 1 5
275 199 A 295 0.0180295 S 2 1 7
113 207 A 307 0.0045102 S 2 2 8
79 216 S 294 0.0148903 S 4 2 10
79 243 S 294 0.0148903 S 4 1 13
3 266 A 284 0.0114111 S 5 2 7
184 275 S 289 0.0340356 A 3 1 5
184 304 S 289 0.0340356 A 2 1 7
113 318 A 302 0.00593016 S 6 2 8
