idFrom idTo symptFrom dayInfect pInfect symptTo lenExposed lenProdomal lenSymptomatic
31 30 A 140 0.010062 S 1 2 9
-1 31 ? 133 0 A 3 2 15
130 35 A 167 0.0167058 S 5 1 3
30 55 S 144 0.0349078 A 4 1 8
290 57 A 154 0.00611736 S 3 2 7
310 66 S 156 0.0019659 A 2 2 9
125 73 A 144 0.0120201 S 3 1 7
298 81 S 156 0.000523763 A 6 1 4
294 82 S 148 0.015279 S 2 2 6
168 83 S 150 0.0240796 S 2 1 14
125 85 A 150 0.00280649 S 6 1 10
31 101 A 140 0.010062 S 3 2 8
294 107 S 148 0.015279 S 3 2 8
31 116 A 140 0.010062 A 5 1 9
31 119 A 140 0.010062 A 3 1 13
31 125 A 140 0.010062 A 1 2 7
298 130 S 158 0.0228116 A 2 2 8
101 137 S 144 0.000304019 S 3 1 8
30 168 S 144 0.0349078 S 3 2 9
267 175 A 164 0.00670063 A 2 1 7
31 188 A 140 0.010062 S 4 1 12
30 205 S 144 0.0349078 A 6 2 7
267 215 A 164 0.00670063 A 4 1 6
30 223 S 144 0.0349078 S 6 2 11
188 226 S 145 0.00717245 S 2 1 7
31 231 A 140 0.010062 S 7 2 11
31 232 A 140 0.010062 S 5 1 10
294 235 S 148 0.015279 S 4 1 11
298 246 S 158 0.0228116 A 4 2 6
168 267 S 150 0.0240796 A 3 1 11
125 269 A 144 0.0120201 A 5 1 7
30 288 S 144 0.0349078 A 3 1 5
30 290 S 144 0.0349078 A 7 1 8
30 294 S 144 0.0349078 S 2 2 7
269 298 A 152 0.00295751 S 3 2 7
205 310 A 153 0.00116686 S 1 1 12
175 316 A 172 0.00127352 S 2 2 5
205 317 A 155 0.00394505 A 7 1 7
294 327 S 148 0.015279 S 2 2 4
