idFrom idTo symptFrom dayInfect pInfect symptTo lenExposed lenProdomal lenSymptomatic
-1 9 ? 203 0 S 1 2 14
9 21 S 206 0.0906993 A 4 1 7
9 45 S 206 0.0906993 A 6 2 8
45 48 A 215 0.0076183 A 2 2 5
322 79 S 232 0.0109127 A 6 1 7
9 80 S 206 0.0906993 S 5 1 11
258 85 S 215 0.0289326 S 3 2 6
232 89 A 214 0.00311621 S 3 1 9
276 92 S 226 0.0597527 S 4 1 7
185 116 S 220 0.0171154 A 4 1 7
453 134 A 212 0.0187125 S 6 1 9
210 172 S 222 0.00307466 A 3 2 8
258 185 S 215 0.0289326 S 3 1 6
826 200 A 227 0.00314975 S 4 1 8
253 210 S 211 0.0115786 S 10 2 13
9 232 S 206 0.0906993 A 4 2 14
9 253 S 206 0.0906993 S 3 1 5
9 254 S 206 0.0906993 A 3 2 6
254 258 A 210 0.0116558 S 4 1 10
276 267 S 226 0.0597527 A 3 2 6
254 269 A 210 0.0116558 S 4 2 7
185 276 S 220 0.0171154 S 5 2 10
276 285 S 226 0.0597527 A 3 2 10
276 322 S 226 0.0597527 S 5 2 6
254 382 A 210 0.0116558 A 5 1 10
492 388 A 218 0.000858861 A 5 1 8
276 390 S 226 0.0597527 A 2 1 5
9 413 S 206 0.0906993 A 3 2 6
9 448 S 206 0.0906993 S 2 2 6
9 453 S 206 0.0906993 A 5 2 10
9 488 S 206 0.0906993 S 2 2 8
232 492 A 211 0.00632237 A 5 2 7
492 496 A 220 0.011212 S 2 1 8
276 533 S 226 0.0597527 S 5 2 9
9 601 S 206 0.0906993 S 3 1 4
258 603 S 215 0.0289326 S 6 2 7
276 621 S 226 0.0597527 A 2 1 8
79 674 A 240 0.00715745 A 2 2 7
9 751 S 206 0.0906993 S 3 2 8
232 826 A 217 0.00139893 A 4 2 9
116 836 A 230 0.0112849 S 2 2 11
172 845 A 230 0.0114264 S 2 1 14
9 941 S 206 0.0906993 S 6 1 12
9 998 S 206 0.0906993 S 2 1 10
