idFrom idTo symptFrom dayInfect pInfect symptTo lenExposed lenProdomal lenSymptomatic
-1 14 ? 64 0 A 5 1 9
14 58 A 74 0.00714156 A 4 1 9
58 115 A 82 0.0400702 A 2 2 12
58 116 A 88 0.00869003 S 8 1 6
14 176 A 74 0.00714156 S 2 2 9
115 181 A 94 0.000575846 S 3 1 7
115 190 A 86 0.00111852 S 2 2 7
115 214 A 91 0.00606774 S 5 2 9
58 276 A 82 0.0400702 S 4 1 6
14 335 A 74 0.00714156 S 4 2 8
58 615 A 82 0.0400702 S 3 2 7
923 621 S 78 0.0106368 A 3 2 15
115 765 A 86 0.00111852 S 4 2 9
14 923 A 74 0.00714156 S 3 1 8
