idFrom idTo symptFrom dayInfect pInfect symptTo lenExposed lenProdomal lenSymptomatic
243 38 A 277 0.0211596 A 3 1 7
634 41 A 291 0.00992699 S 2 1 8
634 54 A 291 0.00992699 A 3 2 7
243 201 A 278 0.0148999 S 5 2 6
38 220 A 282 0.0246874 S 5 2 11
-1 243 ? 269 0 A 4 2 11
38 322 A 282 0.0246874 S 2 1 9
38 387 A 284 0.00225962 S 5 2 6
220 605 S 290 0.0142557 S 6 2 9
38 634 A 282 0.0246874 A 2 2 5
634 658 A 290 0.00301376 S 3 1 12
38 866 A 282 0.0246874 S 3 2 8
