idFrom idTo symptFrom dayInfect pInfect symptTo lenExposed lenProdomal lenSymptomatic
-1 3 ? 50 0 A 3 2 9
327 27 A 78 0.014458 S 4 1 8
327 28 A 78 0.014458 S 2 2 7
653 72 A 74 0.00610453 S 3 1 10
3 147 A 56 0.0029856 S 3 2 14
327 173 A 78 0.014458 S 3 2 8
626 199 S 78 0.00940557 A 5 1 7
653 202 A 74 0.00610453 S 1 2 13
28 226 S 81 0.0290776 S 6 2 7
626 272 S 78 0.00940557 S 5 1 6
544 327 A 70 0.000564299 A 4 1 3
327 372 A 78 0.014458 S 3 1 6
327 429 A 78 0.014458 A 3 2 10
327 441 A 76 0.0156634 S 5 2 5
3 544 A 60 0.0128689 A 6 2 6
653 626 A 74 0.00610453 S 3 2 8
626 649 S 78 0.00940557 S 5 1 7
3 653 A 64 0.0267552 A 2 1 11
653 779 A 74 0.00610453 S 1 2 5
3 884 A 56 0.0029856 S 5 1 11
