idFrom idTo symptFrom dayInfect pInfect symptTo lenExposed lenProdomal lenSymptomatic
254 9 A 92 0.00156491 S 5 2 10
176 14 A 93 0.0323397 A 4 2 14
634 41 S 104 0.0329059 A 1 1 9
9 92 S 98 0.0271118 A 5 1 4
176 116 A 93 0.0323397 S 8 2 4
269 160 S 88 0.0170861 A 2 2 9
254 176 A 84 0.0396083 A 2 1 6
382 254 S 78 0.0199265 A 4 1 10
254 258 A 84 0.0396083 S 6 2 6
254 269 A 84 0.0396083 S 3 1 6
14 276 A 98 0.00249621 S 2 2 8
254 335 A 84 0.0396083 S 2 1 8
-1 382 ? 73 0 S 3 2 8
9 453 S 98 0.0271118 S 3 1 4
9 496 S 98 0.0271118 S 2 1 7
382 603 S 78 0.0199265 S 5 2 5
9 634 S 98 0.0271118 S 5 1 7
634 658 S 104 0.0329059 S 2 1 10
634 869 S 105 0.0547153 S 6 1 15
254 923 A 84 0.0396083 S 2 1 6
269 941 S 88 0.0170861 S 3 2 7
1894 1232 A 112 0.0140086 S 3 1 9
634 1332 S 105 0.0547153 S 6 2 9
1332 1401 S 113 0.0110873 A 2 1 8
634 1894 S 105 0.0547153 A 3 1 8
