idFrom idTo symptFrom dayInfect pInfect symptTo lenExposed lenProdomal lenSymptomatic
-1 3 ? 101 0 A 3 1 4
122 119 A 121 0.0200581 S 6 2 7
884 122 A 112 0.0247476 A 4 2 5
275 132 S 138 0.0462793 S 4 1 4
252 196 S 141 0.000994944 S 1 1 3
132 240 S 143 0.0477491 S 5 2 11
275 252 S 138 0.0462793 S 2 1 4
122 255 A 120 0.000689433 A 4 2 12
255 275 A 135 0.00277644 S 2 2 9
275 312 S 138 0.0462793 A 6 2 8
884 339 A 112 0.0247476 A 4 2 7
884 353 A 112 0.0247476 A 3 1 10
275 612 S 138 0.0462793 A 2 1 7
3 884 A 105 0.00282491 A 4 2 8
275 886 S 138 0.0462793 S 7 2 10
