idFrom idTo symptFrom dayInfect pInfect symptTo lenExposed lenProdomal lenSymptomatic
447 70 A 41 0.0273042 S 7 1 11
425 101 A 61 0.00894802 S 5 2 7
447 119 A 41 0.0273042 A 7 1 11
119 122 A 50 0.00127021 A 5 2 14
447 132 A 41 0.0273042 S 2 2 9
70 199 S 50 0.0764767 A 1 2 4
327 240 A 49 0.0203738 S 3 2 7
122 255 A 66 0.00590767 S 4 2 7
119 272 A 53 0.000165415 S 3 1 6
255 275 S 71 0.00259375 S 4 1 12
441 295 S 33 0.0271982 S 1 1 10
447 327 A 41 0.0273042 A 3 1 12
70 346 S 50 0.0764767 S 2 1 6
327 372 A 49 0.0203738 S 5 2 8
70 374 S 50 0.0764767 A 1 1 8
70 425 S 50 0.0764767 A 4 1 13
441 429 S 33 0.0271982 S 2 1 4
-1 441 ? 26 0 S 5 1 9
441 447 S 33 0.0271982 A 5 1 6
275 612 S 76 0.0145994 S 5 2 12
275 886 S 76 0.0145994 S 5 2 10
