idFrom idTo symptFrom dayInfect pInfect symptTo lenExposed lenProdomal lenSymptomatic
-1 3 ? 179 0 A 4 2 7
3 147 A 184 0.00203812 S 2 1 7
3 184 A 184 0.00203812 S 2 2 8
884 268 A 199 0.0171331 S 6 1 5
884 272 A 204 0.0114946 S 4 1 9
884 339 A 195 0.000608448 A 2 2 5
3 884 A 184 0.00203812 A 6 1 13
