idFrom idTo symptFrom dayInfect pInfect symptTo lenExposed lenProdomal lenSymptomatic
866 20 S 77 0.0741507 S 3 2 8
866 34 S 77 0.0741507 S 3 2 6
151 38 S 84 0.0449977 S 1 2 3
634 41 A 92 0.00168287 S 7 2 8
866 54 S 77 0.0741507 S 5 1 12
866 151 S 77 0.0741507 S 6 1 11
866 156 S 77 0.0741507 S 5 1 9
605 219 S 107 0.042206 S 2 1 14
869 245 S 88 0.00229383 S 8 2 15
605 440 S 107 0.042206 A 1 1 4
-1 525 ? 63 0 S 6 1 9
605 582 S 107 0.042206 S 3 1 13
41 605 S 102 0.104412 S 3 1 8
525 612 S 70 0.0592521 S 7 2 6
151 634 S 84 0.0449977 A 5 2 8
866 640 S 77 0.0741507 S 2 2 8
151 642 S 84 0.0449977 A 2 1 7
41 658 S 102 0.104412 A 6 2 10
866 687 S 77 0.0741507 S 2 1 6
151 753 S 84 0.0449977 A 3 2 9
525 866 S 71 0.0380847 S 5 2 10
151 869 S 84 0.0449977 S 2 2 6
866 874 S 77 0.0741507 S 4 1 6
605 1218 S 107 0.042206 A 5 1 3
866 1332 S 79 0.00541162 S 1 1 6
