idFrom idTo symptFrom dayInfect pInfect symptTo lenExposed lenProdomal lenSymptomatic
312 160 A 53 0.0288002 S 5 2 14
312 275 A 50 0.00708138 S 4 2 10
886 312 S 44 0.0135474 A 2 2 5
886 504 S 44 0.0135474 S 4 2 7
-1 612 ? 28 0 A 4 1 4
612 886 A 37 0.0169507 S 4 2 8
