idFrom idTo symptFrom dayInfect pInfect symptTo lenExposed lenProdomal lenSymptomatic
200 15 A 226 0.046645 S 6 2 9
232 89 S 218 0.00916327 S 4 2 11
232 200 S 218 0.00916327 A 4 1 8
492 210 S 222 0.00624158 A 7 2 6
200 211 A 226 0.046645 A 1 1 8
751 232 A 212 0.00748521 S 4 2 5
211 242 A 228 0.00898866 S 2 1 8
200 322 A 226 0.046645 S 4 2 9
200 413 A 226 0.046645 A 5 2 8
200 448 A 226 0.046645 S 4 1 8
242 480 S 232 0.022554 S 4 2 12
232 488 S 218 0.00916327 A 2 2 10
232 492 S 218 0.00916327 S 2 1 7
211 496 A 228 0.00898866 A 9 2 6
89 601 S 224 0.00312616 S 2 2 5
89 706 S 224 0.00312616 A 1 2 6
-1 751 ? 205 0 A 3 1 6
706 771 A 227 0.00185431 S 3 1 8
200 826 A 226 0.046645 S 1 1 6
211 845 A 228 0.00898866 S 5 2 10
