idFrom idTo symptFrom dayInfect pInfect symptTo lenExposed lenProdomal lenSymptomatic
1324 290 S 251 0.00413832 S 2 2 13
920 440 A 204 0.00513942 S 7 2 4
290 513 S 256 0.000250957 S 3 1 9
440 605 S 212 0.00813048 S 3 2 8
440 797 S 212 0.00813048 A 4 2 10
-1 920 ? 188 0 A 4 2 11
1512 1067 A 242 0.000285097 A 3 1 9
1512 1204 A 256 0.00813771 S 2 2 10
1512 1212 A 256 0.00813771 S 4 1 6
1067 1214 A 247 0.00895338 S 4 1 4
1342 1218 S 225 0.0136242 A 4 2 10
1423 1237 A 218 0.00321167 A 3 1 4
1324 1238 S 249 0.0203336 S 3 2 6
1238 1260 S 255 0.0150647 S 4 1 8
1594 1295 S 245 0.00662924 A 4 2 7
1218 1324 A 240 0.0013787 S 8 2 9
1512 1339 A 243 0.00480935 S 6 1 12
1423 1342 A 219 0.00372757 S 4 2 5
1204 1359 S 260 0.0118034 A 2 1 6
920 1423 A 205 0.00949184 A 5 2 7
1218 1512 A 236 5.0634e-06 A 3 2 17
1218 1594 A 240 0.0013787 S 3 2 8
