idFrom idTo symptFrom dayInfect pInfect symptTo lenExposed lenProdomal lenSymptomatic
-1 3 ? 35 0 S 4 2 7
287 63 S 47 0.0208079 S 3 1 14
63 128 S 52 0.000178489 A 4 1 7
240 148 A 52 0.00297702 S 3 1 13
240 180 A 53 0.0018449 S 5 1 12
3 240 S 41 0.0341435 A 4 1 10
3 287 S 41 0.0341435 S 4 2 8
3 291 S 41 0.0341435 S 3 2 10
