idFrom idTo symptFrom dayInfect pInfect symptTo lenExposed lenProdomal lenSymptomatic
261 15 S 46 0.0699352 S 7 1 4
527 20 A 94 0.00506339 S 6 2 12
295 27 A 56 0.0102852 S 5 2 4
250 34 A 60 0.00476345 S 6 1 8
884 39 A 63 0.00270349 A 5 2 5
339 43 A 84 0.0117381 S 2 1 9
793 59 S 87 0.122482 A 4 1 7
162 72 A 52 0.117068 S 4 1 7
183 77 A 31 0.178396 A 6 1 9
162 79 A 52 0.117068 S 6 2 6
183 99 A 31 0.178396 A 4 1 11
39 118 A 70 0.114741 S 4 1 11
261 156 S 46 0.0699352 A 3 2 11
1342 159 S 56 0.00606753 A 2 1 12
15 160 S 55 0.185091 A 4 1 9
77 162 A 45 0.0532517 A 1 2 8
15 178 S 55 0.185091 S 6 1 8
-1 183 ? 25 0 A 2 1 10
156 193 A 52 0.0678733 S 4 2 16
634 200 S 85 0.101659 A 10 1 12
261 205 S 46 0.0699352 A 6 2 8
159 210 A 70 0.0255342 S 5 1 6
39 219 A 70 0.114741 A 2 1 5
183 220 A 31 0.178396 S 4 1 6
162 242 A 52 0.117068 S 2 1 4
527 248 A 94 0.00506339 A 4 1 5
156 250 A 52 0.0678733 A 3 1 4
1067 261 A 41 0.0319374 S 2 2 8
39 285 A 70 0.114741 A 4 2 10
156 295 A 52 0.0678733 A 2 1 9
39 339 A 70 0.114741 A 4 2 8
261 353 S 46 0.0699352 S 6 1 8
162 372 A 52 0.117068 S 2 2 9
39 407 A 69 0.0302581 A 4 1 5
1067 460 A 43 0.00988042 S 6 2 7
39 466 A 70 0.114741 S 2 1 5
39 468 A 70 0.114741 S 4 1 7
527 504 A 94 0.00506339 A 3 1 7
527 510 A 94 0.00506339 S 7 2 10
634 527 S 85 0.101659 A 3 1 8
156 544 A 50 0.00337086 A 6 2 7
183 582 A 31 0.178396 S 4 1 9
219 634 A 78 0.0677229 S 5 1 12
183 642 A 31 0.178396 S 3 2 7
866 793 A 84 0.025603 S 1 2 8
156 859 A 52 0.0678733 S 6 1 10
285 866 A 78 0.0106367 A 1 1 4
39 871 A 73 0.0732728 S 5 1 10
160 884 A 60 0.0553845 A 2 2 4
39 894 A 70 0.114741 S 2 1 6
15 909 S 55 0.185091 A 2 2 8
39 954 A 70 0.114741 S 4 2 8
160 959 A 60 0.0553845 A 3 2 5
183 1067 A 36 0.00823393 A 1 2 11
183 1238 A 31 0.178396 A 7 2 10
156 1342 A 52 0.0678733 S 3 1 6
