idFrom idTo symptFrom dayInfect pInfect symptTo lenExposed lenProdomal lenSymptomatic
-1 20 ? 37 0 A 1 1 9
582 80 S 63 0.0623408 S 2 2 5
220 89 S 58 0.0323321 S 5 1 12
1164 99 A 66 0.112156 S 4 1 8
642 160 A 52 0.00996766 S 2 2 6
642 183 A 47 0.000509122 A 3 1 10
1164 197 A 66 0.112156 A 3 2 8
183 220 A 53 0.00300063 S 3 1 8
197 270 A 78 0.0150769 S 6 1 10
656 378 A 46 0.0619885 S 2 2 3
378 496 S 50 0.00261252 A 5 1 6
582 525 S 63 0.0623408 S 5 1 11
183 582 A 59 0.000631497 S 3 1 12
20 642 A 40 0.0332867 A 5 1 17
20 656 A 40 0.0332867 A 2 1 5
1164 677 A 66 0.112156 A 2 1 8
1164 720 A 66 0.112156 S 3 2 5
378 741 S 50 0.00261252 S 2 1 10
642 859 A 61 0.0647779 A 2 2 10
656 886 A 46 0.0619885 S 6 1 3
80 889 S 66 0.0359002 A 1 1 9
582 1067 S 63 0.0623408 S 5 2 8
582 1164 S 63 0.0623408 A 2 1 5
886 1204 S 54 0.0446815 A 3 2 7
1067 1342 S 70 0.0225091 S 3 2 5
656 1492 A 46 0.0619885 A 4 2 4
