idFrom idTo symptFrom dayInfect pInfect symptTo lenExposed lenProdomal lenSymptomatic
-1 378 ? 25 0 A 2 1 5
378 432 A 28 0.0160256 S 5 2 8
432 653 S 35 0.152062 A 3 2 8
378 741 A 28 0.0160256 S 2 1 9
