idFrom idTo symptFrom dayInfect pInfect symptTo lenExposed lenProdomal lenSymptomatic
-1 39 ? 241 0 S 2 2 10
267 198 A 269 0.0224852 S 5 2 6
39 219 S 244 0.118854 S 2 1 5
407 246 A 256 0.0213999 S 2 1 13
246 267 S 260 0.0315711 A 3 2 8
246 295 S 260 0.0315711 A 3 1 5
246 374 S 260 0.0315711 S 5 2 5
39 407 S 244 0.118854 A 2 1 10
39 420 S 244 0.118854 S 3 2 9
39 468 S 244 0.118854 S 3 2 8
39 871 S 246 0.0380118 S 4 2 8
246 1362 S 260 0.0315711 S 6 2 6
