idFrom idTo symptFrom dayInfect pInfect symptTo lenExposed lenProdomal lenSymptomatic
468 285 A 270 0.0142482 A 11 2 12
-1 468 ? 263 0 A 4 1 9
285 866 A 290 0.0278468 A 2 1 5
468 985 A 270 0.0142482 S 2 1 9
