idFrom idTo symptFrom dayInfect pInfect symptTo lenExposed lenProdomal lenSymptomatic
-1 3 ? 103 0 S 2 1 6
859 162 A 119 0.0493572 S 4 1 8
859 210 A 119 0.0493572 S 1 1 4
3 253 S 107 0.236001 S 2 1 9
1362 346 A 120 0.00365396 S 6 1 8
3 428 S 106 0.0306214 S 3 2 7
3 447 S 106 0.0306214 A 2 2 9
859 453 A 113 0.0054541 S 6 1 7
763 489 S 118 0.0234418 S 4 1 5
859 694 A 119 0.0493572 A 4 1 9
447 763 A 112 0.0508102 S 4 1 11
3 859 S 106 0.0306214 A 3 2 8
859 959 A 113 0.0054541 S 5 2 8
3 1260 S 107 0.236001 A 2 1 12
3 1362 S 107 0.236001 A 5 2 7
