idFrom idTo symptFrom dayInfect pInfect symptTo lenExposed lenProdomal lenSymptomatic
-1 14 ? 131 0 S 2 1 13
14 27 S 134 0.312798 A 4 2 9
582 80 S 159 0.128474 S 5 2 7
14 99 S 134 0.312798 A 7 1 10
582 183 S 159 0.128474 S 2 2 10
14 527 S 134 0.312798 A 2 2 9
1164 582 A 157 0.00199606 S 1 2 7
1164 677 A 159 0.0141507 A 4 2 8
14 753 S 134 0.312798 S 5 1 5
14 998 S 134 0.312798 A 1 1 5
582 1067 S 159 0.128474 S 2 1 6
99 1164 A 147 0.0134701 A 5 1 8
